dump.vcd
$date
	Fri Dec 27 22:14:58 2024
$end
$version
	Icarus Verilog
$end
$timescale
	1ns
$end
$scope module top_proc_tb $end
$var wire 32 ! instr [31:0] $end
$var wire 32 " dWriteData [31:0] $end
$var wire 32 # dReadData [31:0] $end
$var wire 32 $ dAddress [31:0] $end
$var wire 32 % WriteBackData [31:0] $end
$var wire 32 & PC [31:0] $end
$var wire 1 ' MemWrite $end
$var wire 1 ( MemRead $end
$var reg 1 ) clk $end
$var reg 1 * rst $end
$scope module ram_inst $end
$var wire 9 + addr [8:0] $end
$var wire 1 ) clk $end
$var wire 1 ' we $end
$var wire 32 , din [31:0] $end
$var reg 32 - dout [31:0] $end
$upscope $end
$scope module rom_inst $end
$var wire 9 . addr [8:0] $end
$var wire 1 ) clk $end
$var reg 32 / dout [31:0] $end
$upscope $end
$scope module uut $end
$var wire 1 ) clk $end
$var wire 32 0 dReadData [31:0] $end
$var wire 32 1 instr [31:0] $end
$var wire 1 * rst $end
$var wire 32 2 dWriteData [31:0] $end
$var wire 32 3 dAddress [31:0] $end
$var wire 1 4 Zero $end
$var wire 32 5 WriteBackData [31:0] $end
$var wire 32 6 PC [31:0] $end
$var parameter 7 7 BTYPE $end
$var parameter 3 8 DECODE $end
$var parameter 3 9 EXECUTE $end
$var parameter 3 : FETCH $end
$var parameter 32 ; INITIAL_PC $end
$var parameter 7 < ITYPE $end
$var parameter 7 = LOAD $end
$var parameter 3 > MEMORY $end
$var parameter 3 ? NONE $end
$var parameter 7 @ RTYPE $end
$var parameter 7 A STYPE $end
$var parameter 3 B WRITE_BACK $end
$var reg 4 C ALUCtrl [3:0] $end
$var reg 1 D ALUSrc $end
$var reg 1 ( MemRead $end
$var reg 1 E MemToReg $end
$var reg 1 ' MemWrite $end
$var reg 1 F PCSrc $end
$var reg 1 G RegWrite $end
$var reg 1 H loadPC $end
$var reg 3 I state [2:0] $end
$scope module dp $end
$var wire 4 J ALUCtrl [3:0] $end
$var wire 1 D ALUSrc $end
$var wire 1 E MemToReg $end
$var wire 1 F PCSrc $end
$var wire 1 G RegWrite $end
$var wire 32 K alu_op1 [31:0] $end
$var wire 1 ) clk $end
$var wire 32 L dAddress [31:0] $end
$var wire 32 M dReadData [31:0] $end
$var wire 32 N dWriteData [31:0] $end
$var wire 32 O instr [31:0] $end
$var wire 1 H loadPC $end
$var wire 1 * rst $end
$var wire 5 P writeReg [4:0] $end
$var wire 5 Q readReg2 [4:0] $end
$var wire 5 R readReg1 [4:0] $end
$var wire 32 S readData2 [31:0] $end
$var wire 32 T readData1 [31:0] $end
$var wire 32 U imm_S [31:0] $end
$var wire 32 V imm_I_L [31:0] $end
$var wire 32 W imm_B [31:0] $end
$var wire 32 X imm [31:0] $end
$var wire 32 Y alu_result [31:0] $end
$var wire 32 Z alu_op2 [31:0] $end
$var wire 1 4 Zero $end
$var wire 32 [ WriteBackData [31:0] $end
$var wire 32 \ PC [31:0] $end
$var parameter 7 ] BTYPE $end
$var parameter 32 ^ INITIAL_PC $end
$var parameter 7 _ ITYPE $end
$var parameter 7 ` LOAD $end
$var parameter 7 a RTYPE $end
$var parameter 7 b STYPE $end
$var reg 32 c EX_MEM [31:0] $end
$var reg 32 d MEM_WB [31:0] $end
$var reg 32 e currentPC [31:0] $end
$scope module alu_unit $end
$var wire 4 f alu_op [3:0] $end
$var wire 32 g op1 [31:0] $end
$var wire 32 h op2 [31:0] $end
$var parameter 4 i ALUOP_ADD $end
$var parameter 4 j ALUOP_AND $end
$var parameter 4 k ALUOP_LESS $end
$var parameter 4 l ALUOP_LSHIFT $end
$var parameter 4 m ALUOP_NRSHIFT $end
$var parameter 4 n ALUOP_OR $end
$var parameter 4 o ALUOP_RSHIFT $end
$var parameter 4 p ALUOP_SUB $end
$var parameter 4 q ALUOP_XOR $end
$var reg 32 r result [31:0] $end
$var reg 1 4 zero $end
$upscope $end
$scope module register_file $end
$var wire 1 ) clk $end
$var wire 5 s readReg1 [4:0] $end
$var wire 5 t readReg2 [4:0] $end
$var wire 1 G write $end
$var wire 32 u writeData [31:0] $end
$var wire 5 v writeReg [4:0] $end
$var wire 32 w readData2 [31:0] $end
$var wire 32 x readData1 [31:0] $end
$var parameter 32 y DATAWIDTH $end
$var integer 32 z i [31:0] $end
$upscope $end
$upscope $end
$upscope $end
$upscope $end
$enddefinitions $end
$comment Show the parameter values. $end
$dumpall
b100000 y
b101 q
b110 p
b1000 o
b1 n
b1010 m
b1001 l
b100 k
b0 j
b10 i
b100011 b
b110011 a
b11 `
b10011 _
b10000000000000000000000 ^
b1100011 ]
b100 B
b100011 A
b110011 @
b111 ?
b11 >
b11 =
b10011 <
b10000000000000000000000 ;
b0 :
b10 9
b1 8
b1100011 7
$end
#0
$dumpvars
b100000 z
bx x
bx w
bx v
b0 u
bx t
bx s
bx r
bx h
bx g
b0 f
b10000000000000000000000 e
b0 d
b0 c
b10000000000000000000000 \
b0 [
bx Z
bx Y
bx X
bx0 W
bx V
bx U
bx T
bx S
bx R
bx Q
bx P
bx O
bx N
bx M
b0 L
bx K
b0 J
b1 I
xH
0G
0F
0E
xD
b0 C
b10000000000000000000000 6
b0 5
04
b0 3
bx 2
bx 1
bx 0
bx /
b0 .
bx -
bx ,
b0 +
1*
0)
0(
0'
b10000000000000000000000 &
b0 %
b0 $
bx #
bx "
bx !
$end
#2
0*
#5
b1001 Y
b1001 r
b1001 Z
b1001 h
b0 K
b0 g
b0 T
b0 x
b1001 X
b0 R
b0 s
b10 P
b10 v
b1001 V
b10 U
b10 W
b10 C
b10 J
b10 f
1D
bx +
b100100000000000100010011 !
b100100000000000100010011 /
b100100000000000100010011 1
b100100000000000100010011 O
b10 I
bx $
bx 3
bx L
bx c
1)
#10
0)
#15
14
b0 Y
b0 r
b1001 +
bx %
bx 5
bx [
bx u
b0 C
b0 J
b0 f
b1001 $
b1001 3
b1001 L
b1001 c
bx d
b11 I
1)
#20
0)
#25
bx Z
bx h
1G
0D
1H
b0 +
b1001 %
b1001 5
b1001 [
b1001 u
b100 I
b0 $
b0 3
b0 L
b0 c
b1001 d
1)
#30
0)
#35
b100 .
b0 %
b0 5
b0 [
b0 u
0H
0G
b10000000000000000000100 &
b10000000000000000000100 6
b10000000000000000000100 \
b10000000000000000000100 e
b0 d
b0 I
1)
#40
0)
#45
b1001 Z
b1001 h
b1001 "
b1001 ,
b1001 2
b1001 N
b1001 S
b1001 w
b10 Q
b10 t
b1100 X
b1100 P
b1100 v
b10 V
b1100 U
b1100 W
b1000000010011000100011 !
b1000000010011000100011 /
b1000000010011000100011 1
b1000000010011000100011 O
b1 I
1)
#50
0)
#55
b1100 Z
b1100 h
04
b1100 Y
b1100 r
1D
b10 C
b10 J
b10 f
b10 I
1)
#60
0)
#65
14
b0 Y
b0 r
1'
b0 C
b0 J
b0 f
b1100 +
b11 I
b1100 $
b1100 3
b1100 L
b1100 c
1)
#70
0)
#75
b1001 Z
b1001 h
b0 +
b1100 %
b1100 5
b1100 [
b1100 u
0D
1H
0'
b0 $
b0 3
b0 L
b0 c
b1100 d
b100 I
1)
#80
0)
#85
0H
b0 %
b0 5
b0 [
b0 u
b1000 .
b0 I
b0 d
b10000000000000000001000 &
b10000000000000000001000 6
b10000000000000000001000 \
b10000000000000000001000 e
1)
#90
0)
#95
b0 Z
b0 h
b0 "
b0 ,
b0 2
b0 N
b0 S
b0 w
b1100 Q
b1100 t
b1100 X
b1 P
b1 v
b1100 V
b1 U
b100000000000 W
b110000000010000010000011 !
b110000000010000010000011 /
b110000000010000010000011 1
b110000000010000010000011 O
b1 I
1)
#100
0)
#105
04
b1100 Y
b1100 r
b1100 Z
b1100 h
1D
b10 C
b10 J
b10 f
b10 I
1)
#110
0)
#115
14
b0 Y
b0 r
b1100 +
1(
b0 C
b0 J
b0 f
b1100 $
b1100 3
b1100 L
b1100 c
b11 I
1)
#120
0)
#125
b0 Z
b0 h
1E
1G
0D
1H
0(
b0 +
b1001 %
b1001 5
b1001 [
b1001 u
b100 I
b0 $
b0 3
b0 L
b0 c
b1100 d
b1001 #
b1001 -
b1001 0
b1001 M
1)
#130
0)
#135
b1100 .
0H
0E
0G
b10000000000000000001100 &
b10000000000000000001100 6
b10000000000000000001100 \
b10000000000000000001100 e
b0 d
b0 I
b0 %
b0 5
b0 [
b0 u
bx #
bx -
bx 0
bx M
1)
#140
0)
#145
04
bx Y
bx r
bx Z
bx h
bx "
bx ,
bx 2
bx N
bx S
bx w
bx K
bx g
bx T
bx x
bx Q
bx t
bx X
bx R
bx s
bx P
bx v
bx V
bx U
bx0 W
bx !
bx /
bx 1
bx O
b1 I
1)
#150
0)
#155
bx +
bx $
bx 3
bx L
bx c
b10 I
1)
#160
0)
#165
bx %
bx 5
bx [
bx u
b11 I
bx d
1)
#170
0)
#175
1H
b100 I
1)
#180
0)
#185
0H
b10000 .
b0 I
b10000000000000000010000 &
b10000000000000000010000 6
b10000000000000000010000 \
b10000000000000000010000 e
1)
#190
0)
#195
b1 I
1)
#200
0)
#205
b10 I
1)
#210
0)
#215
b11 I
1)
#220
0)
#225
1H
b100 I
1)
#230
0)
#235
b10100 .
0H
b10000000000000000010100 &
b10000000000000000010100 6
b10000000000000000010100 \
b10000000000000000010100 e
b0 I
1)
#240
0)
#245
b1 I
1)
#250
0)
#255
b10 I
1)
#260
0)
#265
b11 I
1)
#270
0)
#275
1H
b100 I
1)
#280
0)
#285
0H
b11000 .
b0 I
b10000000000000000011000 &
b10000000000000000011000 6
b10000000000000000011000 \
b10000000000000000011000 e
1)
#290
0)
#295
b1 I
1)
#300
0)
#305
b10 I
1)
#310
0)
#315
b11 I
1)
#320
0)
#325
1H
b100 I
1)
#330
0)
#335
b11100 .
0H
b10000000000000000011100 &
b10000000000000000011100 6
b10000000000000000011100 \
b10000000000000000011100 e
b0 I
1)
#340
0)
#345
b1 I
1)
#350
0)
#355
b10 I
1)
#360
0)
#365
b11 I
1)
#370
0)
#375
1H
b100 I
1)
#380
0)
#385
0H
b100000 .
b0 I
b10000000000000000100000 &
b10000000000000000100000 6
b10000000000000000100000 \
b10000000000000000100000 e
1)
#390
0)
#395
b1 I
1)
#400
0)
#405
b10 I
1)
#410
0)
#415
b11 I
1)
#420
0)
#425
1H
b100 I
1)
#430
0)
#435
b100100 .
0H
b10000000000000000100100 &
b10000000000000000100100 6
b10000000000000000100100 \
b10000000000000000100100 e
b0 I
1)
#440
0)
#445
b1 I
1)
#450
0)
#455
b10 I
1)
#460
0)
#465
b11 I
1)
#470
0)
#475
1H
b100 I
1)
#480
0)
#485
0H
b101000 .
b0 I
b10000000000000000101000 &
b10000000000000000101000 6
b10000000000000000101000 \
b10000000000000000101000 e
1)
#490
0)
#495
b1 I
1)
#500
0)
#505
b10 I
1)
#510
0)
#515
b11 I
1)
#520
0)
#525
1H
b100 I
1)
#530
0)
#535
b101100 .
0H
b10000000000000000101100 &
b10000000000000000101100 6
b10000000000000000101100 \
b10000000000000000101100 e
b0 I
1)
#540
0)
#545
b1 I
1)
#550
0)
#555
b10 I
1)
#560
0)
#565
b11 I
1)
#570
0)
#575
1H
b100 I
1)
#580
0)
#585
0H
b110000 .
b0 I
b10000000000000000110000 &
b10000000000000000110000 6
b10000000000000000110000 \
b10000000000000000110000 e
1)
#590
0)
#595
b1 I
1)
#600
0)
#605
b10 I
1)
#610
0)
#615
b11 I
1)
#620
0)
#625
1H
b100 I
1)
#630
0)
#635
b110100 .
0H
b10000000000000000110100 &
b10000000000000000110100 6
b10000000000000000110100 \
b10000000000000000110100 e
b0 I
1)
#640
0)
#645
b1 I
1)
#650
0)
#655
b10 I
1)
#660
0)
#665
b11 I
1)
#670
0)
#675
1H
b100 I
1)
#680
0)
#685
0H
b111000 .
b0 I
b10000000000000000111000 &
b10000000000000000111000 6
b10000000000000000111000 \
b10000000000000000111000 e
1)
#690
0)
#695
b1 I
1)
#700
0)
#705
b10 I
1)
#710
0)
#715
b11 I
1)
#720
0)
#725
1H
b100 I
1)
#730
0)
#735
b111100 .
0H
b10000000000000000111100 &
b10000000000000000111100 6
b10000000000000000111100 \
b10000000000000000111100 e
b0 I
1)
#740
0)
#745
b1 I
1)
#750
0)
#755
b10 I
1)
#760
0)
#765
b11 I
1)
#770
0)
#775
1H
b100 I
1)
#780
0)
#785
0H
b1000000 .
b0 I
b10000000000000001000000 &
b10000000000000001000000 6
b10000000000000001000000 \
b10000000000000001000000 e
1)
#790
0)
#795
b1 I
1)
#800
0)
#805
b10 I
1)
#810
0)
#815
b11 I
1)
#820
0)
#825
1H
b100 I
1)
#830
0)
#835
b1000100 .
0H
b10000000000000001000100 &
b10000000000000001000100 6
b10000000000000001000100 \
b10000000000000001000100 e
b0 I
1)
#840
0)
#845
b1 I
1)
#850
0)
#855
b10 I
1)
#860
0)
#865
b11 I
1)
#870
0)
#875
1H
b100 I
1)
#880
0)
#885
0H
b1001000 .
b0 I
b10000000000000001001000 &
b10000000000000001001000 6
b10000000000000001001000 \
b10000000000000001001000 e
1)
#890
0)
#895
b1 I
1)
#900
0)
#905
b10 I
1)
#910
0)
#915
b11 I
1)
#920
0)
#925
1H
b100 I
1)
#930
0)
#935
b1001100 .
0H
b10000000000000001001100 &
b10000000000000001001100 6
b10000000000000001001100 \
b10000000000000001001100 e
b0 I
1)
#940
0)
#945
b1 I
1)
#950
0)
#955
b10 I
1)
#960
0)
#965
b11 I
1)
#970
0)
#975
1H
b100 I
1)
#980
0)
#985
0H
b1010000 .
b0 I
b10000000000000001010000 &
b10000000000000001010000 6
b10000000000000001010000 \
b10000000000000001010000 e
1)
#990
0)
#995
b1 I
1)
#1000
0)
#1005
b10 I
1)
#1010
0)
#1015
b11 I
1)
#1020
0)
#1025
1H
b100 I
1)
#1030
0)
#1035
b1010100 .
0H
b10000000000000001010100 &
b10000000000000001010100 6
b10000000000000001010100 \
b10000000000000001010100 e
b0 I
1)
#1040
0)
#1045
b1 I
1)
