dump.vcd
$date
	Tue Dec 24 13:02:58 2024
$end
$version
	Icarus Verilog
$end
$timescale
	1ns
$end
$scope module top_proc_tb $end
$var wire 32 ! instr [31:0] $end
$var wire 32 " dWriteData [31:0] $end
$var wire 32 # dReadData [31:0] $end
$var wire 32 $ dAddress [31:0] $end
$var wire 32 % WriteBackData [31:0] $end
$var wire 32 & PC [31:0] $end
$var wire 1 ' MemWrite $end
$var wire 1 ( MemRead $end
$var reg 1 ) clk $end
$var reg 1 * rst $end
$scope module ram_inst $end
$var wire 9 + addr [8:0] $end
$var wire 1 ) clk $end
$var wire 1 ' we $end
$var wire 32 , din [31:0] $end
$var reg 32 - dout [31:0] $end
$upscope $end
$scope module rom_inst $end
$var wire 9 . addr [8:0] $end
$var wire 1 ) clk $end
$var reg 32 / dout [31:0] $end
$upscope $end
$scope module uut $end
$var wire 1 ) clk $end
$var wire 32 0 dReadData [31:0] $end
$var wire 32 1 instr [31:0] $end
$var wire 1 * rst $end
$var wire 32 2 dWriteData [31:0] $end
$var wire 32 3 dAddress [31:0] $end
$var wire 1 4 Zero $end
$var wire 32 5 WriteBackData [31:0] $end
$var wire 32 6 PC [31:0] $end
$var parameter 7 7 BTYPE $end
$var parameter 3 8 DECODE $end
$var parameter 3 9 EXECUTE $end
$var parameter 3 : FETCH $end
$var parameter 32 ; INITIAL_PC $end
$var parameter 7 < ITYPE $end
$var parameter 7 = LOAD $end
$var parameter 3 > MEMORY $end
$var parameter 3 ? NONE $end
$var parameter 7 @ RTYPE $end
$var parameter 7 A STYPE $end
$var parameter 3 B WRITE_BACK $end
$var reg 4 C ALUCtrl [3:0] $end
$var reg 1 D ALUSrc $end
$var reg 1 ( MemRead $end
$var reg 1 E MemToReg $end
$var reg 1 ' MemWrite $end
$var reg 1 F PCSrc $end
$var reg 1 G RegWrite $end
$var reg 1 H loadPC $end
$var reg 3 I state [2:0] $end
$scope module dp $end
$var wire 4 J ALUCtrl [3:0] $end
$var wire 1 D ALUSrc $end
$var wire 1 E MemToReg $end
$var wire 1 F PCSrc $end
$var wire 1 G RegWrite $end
$var wire 32 K alu_op1 [31:0] $end
$var wire 1 ) clk $end
$var wire 32 L dAddress [31:0] $end
$var wire 32 M dReadData [31:0] $end
$var wire 32 N dWriteData [31:0] $end
$var wire 32 O instr [31:0] $end
$var wire 1 H loadPC $end
$var wire 1 * rst $end
$var wire 5 P writeReg [4:0] $end
$var wire 5 Q readReg2 [4:0] $end
$var wire 5 R readReg1 [4:0] $end
$var wire 32 S readData2 [31:0] $end
$var wire 32 T readData1 [31:0] $end
$var wire 32 U imm_S [31:0] $end
$var wire 32 V imm_I_L [31:0] $end
$var wire 32 W imm_B [31:0] $end
$var wire 32 X imm [31:0] $end
$var wire 32 Y alu_result [31:0] $end
$var wire 32 Z alu_op2 [31:0] $end
$var wire 1 4 Zero $end
$var wire 32 [ WriteBackData [31:0] $end
$var wire 32 \ PC [31:0] $end
$var parameter 7 ] BTYPE $end
$var parameter 32 ^ INITIAL_PC $end
$var parameter 7 _ ITYPE $end
$var parameter 7 ` LOAD $end
$var parameter 7 a RTYPE $end
$var parameter 7 b STYPE $end
$var reg 32 c alu_result_latched [31:0] $end
$var reg 32 d currentPC [31:0] $end
$scope module alu_unit $end
$var wire 4 e alu_op [3:0] $end
$var wire 32 f op1 [31:0] $end
$var wire 32 g op2 [31:0] $end
$var parameter 4 h ALUOP_ADD $end
$var parameter 4 i ALUOP_AND $end
$var parameter 4 j ALUOP_LESS $end
$var parameter 4 k ALUOP_LSHIFT $end
$var parameter 4 l ALUOP_NRSHIFT $end
$var parameter 4 m ALUOP_OR $end
$var parameter 4 n ALUOP_RSHIFT $end
$var parameter 4 o ALUOP_SUB $end
$var parameter 4 p ALUOP_XOR $end
$var reg 32 q result [31:0] $end
$var reg 1 4 zero $end
$upscope $end
$scope module register_file $end
$var wire 1 ) clk $end
$var wire 32 r readData1 [31:0] $end
$var wire 32 s readData2 [31:0] $end
$var wire 5 t readReg1 [4:0] $end
$var wire 5 u readReg2 [4:0] $end
$var wire 1 G write $end
$var wire 32 v writeData [31:0] $end
$var wire 5 w writeReg [4:0] $end
$var parameter 32 x DATAWIDTH $end
$var integer 32 y i [31:0] $end
$upscope $end
$upscope $end
$upscope $end
$upscope $end
$enddefinitions $end
$comment Show the parameter values. $end
$dumpall
b100000 x
b101 p
b110 o
b1000 n
b1 m
b1010 l
b1001 k
b100 j
b0 i
b10 h
b100011 b
b110011 a
b11 `
b10011 _
b10000000000000000000000 ^
b1100011 ]
b100 B
b100011 A
b110011 @
b111 ?
b11 >
b11 =
b10011 <
b10000000000000000000000 ;
b0 :
b10 9
b1 8
b1100011 7
$end
#0
$dumpvars
b100000 y
bx w
b0 v
bx u
bx t
bx s
bx r
bx q
bx g
bx f
b0 e
b10000000000000000000000 d
b0 c
b10000000000000000000000 \
b0 [
bx Z
bx Y
bx X
bx0 W
bx V
bx U
bx T
bx S
bx R
bx Q
bx P
bx O
bx N
bx M
b0 L
bx K
b0 J
b1 I
0H
0G
0F
0E
xD
b0 C
b10000000000000000000000 6
b0 5
04
b0 3
bx 2
bx 1
bx 0
bx /
b0 .
bx -
bx ,
b0 +
1*
0)
0(
0'
b10000000000000000000000 &
b0 %
b0 $
bx #
bx "
bx !
$end
#2
0*
#5
b111 Y
b111 q
b111 Z
b111 g
b0 "
b0 ,
b0 2
b0 N
b0 S
b0 s
b111 Q
b111 u
b111 X
b0 K
b0 f
b0 T
b0 r
b0 R
b0 t
b1 P
b1 w
b111 V
b1 U
b100000000000 W
b10 C
b10 J
b10 e
1G
1D
b11100000000000010010011 !
b11100000000000010010011 /
b11100000000000010010011 1
b11100000000000010010011 O
b10 I
1)
#10
0)
#15
b0 Z
b0 g
14
b0 Y
b0 q
b111 %
b111 5
b111 [
b111 v
b111 +
0D
b0 C
b0 J
b0 e
1G
b111 $
b111 3
b111 L
b111 c
b100 I
1)
#20
0)
#25
1H
0G
b0 %
b0 5
b0 [
b0 v
b0 +
b0 I
b0 $
b0 3
b0 L
b0 c
1)
#30
0)
#35
b100 .
0H
b10000000000000000000100 &
b10000000000000000000100 6
b10000000000000000000100 \
b10000000000000000000100 d
b1 I
1)
#40
0)
#45
b10101 X
bx "
bx ,
bx 2
bx N
bx S
bx s
bx Q
bx u
04
b10101 Y
b10101 q
b10101 Z
b10101 g
b10 P
b10 w
b10101 V
b10 U
b10 W
b10 C
b10 J
b10 e
1G
1D
b1010100000000000100010011 !
b1010100000000000100010011 /
b1010100000000000100010011 1
b1010100000000000100010011 O
b10 I
1)
#50
0)
#55
bx Z
bx g
14
b0 Y
b0 q
b10101 %
b10101 5
b10101 [
b10101 v
b10101 +
0D
b0 C
b0 J
b0 e
1G
b10101 $
b10101 3
b10101 L
b10101 c
b100 I
1)
#60
0)
#65
1H
0G
b0 %
b0 5
b0 [
b0 v
b0 +
b0 I
b0 $
b0 3
b0 L
b0 c
1)
#70
0)
#75
b1000 .
0H
b10000000000000000001000 &
b10000000000000000001000 6
b10000000000000000001000 \
b10000000000000000001000 d
b1 I
1)
#80
0)
#85
b10101 Z
b10101 g
b10 X
b10101 "
b10101 ,
b10101 2
b10101 N
b10101 S
b10101 s
b10 Q
b10 u
04
b11100 Y
b11100 q
b111 K
b111 f
b111 T
b111 r
b1 R
b1 t
b11 P
b11 w
b10 V
b11 U
b100000000010 W
b10 C
b10 J
b10 e
1G
b1000001000000110110011 !
b1000001000000110110011 /
b1000001000000110110011 1
b1000001000000110110011 O
b10 I
1)
#90
0)
#95
b101 Y
b101 q
b11100 %
b11100 5
b11100 [
b11100 v
b11100 +
b0 C
b0 J
b0 e
1G
b11100 $
b11100 3
b11100 L
b11100 c
b100 I
1)
#100
0)
#105
1H
0G
b101 %
b101 5
b101 [
b101 v
b101 +
b0 I
b101 $
b101 3
b101 L
b101 c
1)
#110
0)
#115
b1100 .
0H
b10000000000000000001100 &
b10000000000000000001100 6
b10000000000000000001100 \
b10000000000000000001100 d
b1 I
1)
#120
0)
#125
b11111111111111111111111111110111 X
bx "
bx ,
bx 2
bx N
bx S
bx s
bx Q
bx u
b11111111111111111111111111110111 Y
b11111111111111111111111111110111 q
b11111111111111111111111111110111 Z
b11111111111111111111111111110111 g
b0 K
b0 f
b0 T
b0 r
b0 R
b0 t
b100 P
b100 w
b11111111111111111111111111110111 V
b11111111111111111111111111100100 U
b11111111111111111111011111100100 W
b10 C
b10 J
b10 e
1G
1D
b11111111011100000000001000010011 !
b11111111011100000000001000010011 /
b11111111011100000000001000010011 1
b11111111011100000000001000010011 O
b10 I
1)
#130
0)
#135
bx Z
bx g
14
b0 Y
b0 q
b11111111111111111111111111110111 %
b11111111111111111111111111110111 5
b11111111111111111111111111110111 [
b11111111111111111111111111110111 v
b111110111 +
0D
b0 C
b0 J
b0 e
1G
b11111111111111111111111111110111 $
b11111111111111111111111111110111 3
b11111111111111111111111111110111 L
b11111111111111111111111111110111 c
b100 I
1)
#140
0)
#145
1H
0G
b0 %
b0 5
b0 [
b0 v
b0 +
b0 I
b0 $
b0 3
b0 L
b0 c
1)
#150
0)
#155
b10000 .
0H
b10000000000000000010000 &
b10000000000000000010000 6
b10000000000000000010000 \
b10000000000000000010000 d
b1 I
1)
#160
0)
#165
b11111111111111111111111111101111 X
b0 "
b0 ,
b0 2
b0 N
b0 S
b0 s
b1111 Q
b1111 u
04
b100 Y
b100 q
b11111111111111111111111111101111 Z
b11111111111111111111111111101111 g
b10101 K
b10101 f
b10101 T
b10101 r
b10 R
b10 t
b101 P
b101 w
b11111111111111111111111111101111 V
b11111111111111111111111111100101 U
b11111111111111111111111111100100 W
b10 C
b10 J
b10 e
1G
1D
b11111110111100010000001010010011 !
b11111110111100010000001010010011 /
b11111110111100010000001010010011 1
b11111110111100010000001010010011 O
b10 I
1)
#170
0)
#175
14
b0 Z
b0 g
b0 Y
b0 q
b100 %
b100 5
b100 [
b100 v
b100 +
0D
b0 C
b0 J
b0 e
1G
b100 $
b100 3
b100 L
b100 c
b100 I
1)
#180
0)
#185
1H
0G
b0 %
b0 5
b0 [
b0 v
b0 +
b0 I
b0 $
b0 3
b0 L
b0 c
1)
#190
0)
#195
b10100 .
0H
b10000000000000000010100 &
b10000000000000000010100 6
b10000000000000000010100 \
b10000000000000000010100 d
b1 I
1)
#200
0)
#205
b11111111111111111111111111110111 Z
b11111111111111111111111111110111 g
b100 X
b11111111111111111111111111110111 "
b11111111111111111111111111110111 ,
b11111111111111111111111111110111 2
b11111111111111111111111111110111 N
b11111111111111111111111111110111 S
b11111111111111111111111111110111 s
b100 Q
b100 u
04
b11111111111111111111111111111011 Y
b11111111111111111111111111111011 q
b100 K
b100 f
b100 T
b100 r
b101 R
b101 t
b110 P
b110 w
b100 V
b110 U
b110 W
b10 C
b10 J
b10 e
1G
b10000101000001100110011 !
b10000101000001100110011 /
b10000101000001100110011 1
b10000101000001100110011 O
b10 I
1)
#210
0)
#215
b100 Y
b100 q
b11111111111111111111111111111011 %
b11111111111111111111111111111011 5
b11111111111111111111111111111011 [
b11111111111111111111111111111011 v
b111111011 +
b0 C
b0 J
b0 e
1G
b11111111111111111111111111111011 $
b11111111111111111111111111111011 3
b11111111111111111111111111111011 L
b11111111111111111111111111111011 c
b100 I
1)
#220
0)
#225
1H
0G
b100 %
b100 5
b100 [
b100 v
b100 +
b0 I
b100 $
b100 3
b100 L
b100 c
1)
#230
0)
#235
b11000 .
0H
b10000000000000000011000 &
b10000000000000000011000 6
b10000000000000000011000 \
b10000000000000000011000 d
b1 I
1)
#240
0)
#245
b10101 Z
b10101 g
b10000000010 X
b10101 "
b10101 ,
b10101 2
b10101 N
b10101 S
b10101 s
b10 Q
b10 u
b111 Y
b111 q
b11100 K
b11100 f
b11100 T
b11100 r
b11 R
b11 t
b111 P
b111 w
b10000000010 V
b10000000111 U
b110000000110 W
b110 C
b110 J
b110 e
1G
b1000000001000011000001110110011 !
b1000000001000011000001110110011 /
b1000000001000011000001110110011 1
b1000000001000011000001110110011 O
b10 I
1)
#250
0)
#255
b10100 Y
b10100 q
b111 %
b111 5
b111 [
b111 v
b111 +
b0 C
b0 J
b0 e
1G
b111 $
b111 3
b111 L
b111 c
b100 I
1)
#260
0)
#265
1H
0G
b10100 %
b10100 5
b10100 [
b10100 v
b10100 +
b0 I
b10100 $
b10100 3
b10100 L
b10100 c
1)
#270
0)
#275
b11100 .
0H
b10000000000000000011100 &
b10000000000000000011100 6
b10000000000000000011100 \
b10000000000000000011100 d
b1 I
1)
#280
0)
#285
b100 Z
b100 g
b101 X
b100 "
b100 ,
b100 2
b100 N
b100 S
b100 s
b101 Q
b101 u
b1110000 Y
b1110000 q
b111 K
b111 f
b111 T
b111 r
b111 R
b111 t
b1000 P
b1000 w
b101 V
b1000 U
b1000 W
b1001 C
b1001 J
b1001 e
1G
b10100111001010000110011 !
b10100111001010000110011 /
b10100111001010000110011 1
b10100111001010000110011 O
b10 I
1)
#290
0)
#295
b100 Y
b100 q
b1110000 %
b1110000 5
b1110000 [
b1110000 v
b1110000 +
b0 C
b0 J
b0 e
1G
b1110000 $
b1110000 3
b1110000 L
b1110000 c
b100 I
1)
#300
0)
#305
1H
0G
b100 %
b100 5
b100 [
b100 v
b100 +
b0 I
b100 $
b100 3
b100 L
b100 c
1)
#310
0)
#315
b100000 .
0H
b10000000000000000100000 &
b10000000000000000100000 6
b10000000000000000100000 \
b10000000000000000100000 d
b1 I
1)
#320
0)
#325
b1110000 Z
b1110000 g
b1000 X
b1110000 "
b1110000 ,
b1110000 2
b1110000 N
b1110000 S
b1110000 s
b1000 Q
b1000 u
b1 Y
b1 q
b11111111111111111111111111110111 K
b11111111111111111111111111110111 f
b11111111111111111111111111110111 T
b11111111111111111111111111110111 r
b100 R
b100 t
b1001 P
b1001 w
b1000 V
b1001 U
b100000001000 W
b100 C
b100 J
b100 e
1G
b100000100010010010110011 !
b100000100010010010110011 /
b100000100010010010110011 1
b100000100010010010110011 O
b10 I
1)
#330
0)
#335
b1110000 Y
b1110000 q
b1 %
b1 5
b1 [
b1 v
b1 +
b0 C
b0 J
b0 e
1G
b1 $
b1 3
b1 L
b1 c
b100 I
1)
#340
0)
#345
1H
0G
b1110000 %
b1110000 5
b1110000 [
b1110000 v
b1110000 +
b0 I
b1110000 $
b1110000 3
b1110000 L
b1110000 c
1)
#350
0)
#355
b100100 .
0H
b10000000000000000100100 &
b10000000000000000100100 6
b10000000000000000100100 \
b10000000000000000100100 d
b1 I
1)
#360
0)
#365
b10101 Z
b10101 g
b10 X
b10101 "
b10101 ,
b10101 2
b10101 N
b10101 S
b10101 s
b10 Q
b10 u
04
b1100101 Y
b1100101 q
b1110000 K
b1110000 f
b1110000 T
b1110000 r
b1000 R
b1000 t
b1010 P
b1010 w
b10 V
b1010 U
b1010 W
b101 C
b101 J
b101 e
1G
b1001000100010100110011 !
b1001000100010100110011 /
b1001000100010100110011 1
b1001000100010100110011 O
b10 I
1)
#370
0)
#375
b10000 Y
b10000 q
b1100101 %
b1100101 5
b1100101 [
b1100101 v
b1100101 +
b0 C
b0 J
b0 e
1G
b1100101 $
b1100101 3
b1100101 L
b1100101 c
b100 I
1)
#380
0)
#385
1H
0G
b10000 %
b10000 5
b10000 [
b10000 v
b10000 +
b0 I
b10000 $
b10000 3
b10000 L
b10000 c
1)
#390
0)
#395
b101000 .
0H
b10000000000000000101000 &
b10000000000000000101000 6
b10000000000000000101000 \
b10000000000000000101000 d
b1 I
1)
#400
0)
#405
b1110000 Z
b1110000 g
b1000 X
b1100000 Y
b1100000 q
b1110000 "
b1110000 ,
b1110000 2
b1110000 N
b1110000 S
b1110000 s
b1000 Q
b1000 u
b1100101 K
b1100101 f
b1100101 T
b1100101 r
b1010 R
b1010 t
b1011 P
b1011 w
b1000 V
b1011 U
b100000001010 W
1G
b100001010111010110110011 !
b100001010111010110110011 /
b100001010111010110110011 1
b100001010111010110110011 O
b10 I
1)
#410
0)
#415
b1100000 %
b1100000 5
b1100000 [
b1100000 v
b1100000 +
1G
b1100000 $
b1100000 3
b1100000 L
b1100000 c
b100 I
1)
#420
0)
#425
1H
0G
b0 I
1)
#430
0)
#435
b101100 .
0H
b10000000000000000101100 &
b10000000000000000101100 6
b10000000000000000101100 \
b10000000000000000101100 d
b1 I
1)
#440
0)
#445
b1 Z
b1 g
b1001 X
b1 "
b1 ,
b1 2
b1 N
b1 S
b1 s
b1001 Q
b1001 u
04
b110000 Y
b110000 q
b1100000 K
b1100000 f
b1100000 T
b1100000 r
b1011 R
b1011 t
b1100 P
b1100 w
b1001 V
b1100 U
b1100 W
b1000 C
b1000 J
b1000 e
1G
b100101011101011000110011 !
b100101011101011000110011 /
b100101011101011000110011 1
b100101011101011000110011 O
b10 I
1)
#450
0)
#455
14
b0 Y
b0 q
b110000 %
b110000 5
b110000 [
b110000 v
b110000 +
b0 C
b0 J
b0 e
1G
b110000 $
b110000 3
b110000 L
b110000 c
b100 I
1)
#460
0)
#465
1H
0G
b0 %
b0 5
b0 [
b0 v
b0 +
b0 I
b0 $
b0 3
b0 L
b0 c
1)
#470
0)
#475
b110000 .
0H
b10000000000000000110000 &
b10000000000000000110000 6
b10000000000000000110000 \
b10000000000000000110000 d
b1 I
1)
#480
0)
#485
b11100 Z
b11100 g
b11 X
b11100 "
b11100 ,
b11100 2
b11100 N
b11100 S
b11100 s
b11 Q
b11 u
04
b111100 Y
b111100 q
b110000 K
b110000 f
b110000 T
b110000 r
b1100 R
b1100 t
b1101 P
b1101 w
b11 V
b1101 U
b100000001100 W
b1 C
b1 J
b1 e
1G
b1101100110011010110011 !
b1101100110011010110011 /
b1101100110011010110011 1
b1101100110011010110011 O
b10 I
1)
#490
0)
#495
b10000 Y
b10000 q
b111100 %
b111100 5
b111100 [
b111100 v
b111100 +
b0 C
b0 J
b0 e
1G
b111100 $
b111100 3
b111100 L
b111100 c
b100 I
1)
#500
0)
#505
1H
0G
b10000 %
b10000 5
b10000 [
b10000 v
b10000 +
b0 I
b10000 $
b10000 3
b10000 L
b10000 c
1)
#510
0)
#515
b110100 .
0H
b10000000000000000110100 &
b10000000000000000110100 6
b10000000000000000110100 \
b10000000000000000110100 d
b1 I
1)
#520
0)
#525
b1 Z
b1 g
b10000001001 X
b1 "
b1 ,
b1 2
b1 N
b1 S
b1 s
b1001 Q
b1001 u
b11111111111111111111111111111011 Y
b11111111111111111111111111111011 q
b11111111111111111111111111110111 K
b11111111111111111111111111110111 f
b11111111111111111111111111110111 T
b11111111111111111111111111110111 r
b100 R
b100 t
b1110 P
b1110 w
b10000001001 V
b10000001110 U
b10000001110 W
b1010 C
b1010 J
b1010 e
1G
b1000000100100100101011100110011 !
b1000000100100100101011100110011 /
b1000000100100100101011100110011 1
b1000000100100100101011100110011 O
b10 I
1)
#530
0)
#535
b1 Y
b1 q
b11111111111111111111111111111011 %
b11111111111111111111111111111011 5
b11111111111111111111111111111011 [
b11111111111111111111111111111011 v
b111111011 +
b0 C
b0 J
b0 e
1G
b11111111111111111111111111111011 $
b11111111111111111111111111111011 3
b11111111111111111111111111111011 L
b11111111111111111111111111111011 c
b100 I
1)
#540
0)
#545
1H
0G
b1 %
b1 5
b1 [
b1 v
b1 +
b0 I
b1 $
b1 3
b1 L
b1 c
1)
#550
0)
#555
b111000 .
0H
b10000000000000000111000 &
b10000000000000000111000 6
b10000000000000000111000 \
b10000000000000000111000 d
b1 I
1)
#560
0)
#565
14
b0 Y
b0 q
b1100000 "
b1100000 ,
b1100000 2
b1100000 N
b1100000 S
b1100000 s
b1011 Q
b1011 u
b0 X
b0 Z
b0 g
b100 K
b100 f
b100 T
b100 r
b101 R
b101 t
b0 P
b0 w
b1011 V
b0 U
b0 W
1D
b101100101010000000100011 !
b101100101010000000100011 /
b101100101010000000100011 1
b101100101010000000100011 O
b10 I
1)
#570
0)
#575
1'
b11 I
1)
#580
0)
#585
b1100000 Z
b1100000 g
0D
0'
b100 I
1)
#590
0)
#595
1H
b0 I
b1100000 #
b1100000 -
b1100000 0
b1100000 M
1)
#600
0)
#605
0H
b111100 .
b1 I
b10000000000000000111100 &
b10000000000000000111100 6
b10000000000000000111100 \
b10000000000000000111100 d
1)
#610
0)
#615
b0 "
b0 ,
b0 2
b0 N
b0 S
b0 s
b0 Q
b0 u
b0 X
b0 Z
b0 g
b1111 P
b1111 w
b0 V
b1111 U
b100000001110 W
1D
b101010011110000011 !
b101010011110000011 /
b101010011110000011 1
b101010011110000011 O
b10 I
1)
#620
0)
#625
1(
b11 I
1)
#630
0)
#635
b1100000 %
b1100000 5
b1100000 [
b1100000 v
1E
1G
0D
0(
b100 I
1)
#640
0)
#645
b1 %
b1 5
b1 [
b1 v
1H
0E
0G
b0 I
1)
#650
0)
#655
b1000000 .
0H
b10000000000000001000000 &
b10000000000000001000000 6
b10000000000000001000000 \
b10000000000000001000000 d
b1 I
1)
#660
0)
#665
04
b1010000 Y
b1010000 q
b11111111111111111111111111010011 Z
b11111111111111111111111111010011 g
b11111111111111111111111111010011 X
bx "
bx ,
bx 2
bx N
bx S
bx s
bx Q
bx u
b1110000 K
b1110000 f
b1110000 T
b1110000 r
b1000 R
b1000 t
b10000 P
b10000 w
b11111111111111111111111111010011 V
b11111111111111111111111111010000 U
b11111111111111111111011111010000 W
1G
1D
b11111101001101000111100000010011 !
b11111101001101000111100000010011 /
b11111101001101000111100000010011 1
b11111101001101000111100000010011 O
b10 I
1)
#670
0)
#675
b0xxx0000 Y
b0xxx0000 q
bx Z
bx g
b1010000 %
b1010000 5
b1010000 [
b1010000 v
b1010000 +
0D
1G
b1010000 $
b1010000 3
b1010000 L
b1010000 c
b100 I
1)
#680
0)
#685
1H
0G
b0xxx0000 %
b0xxx0000 5
b0xxx0000 [
b0xxx0000 v
b0xxx0000 +
b0 I
b0xxx0000 $
b0xxx0000 3
b0xxx0000 L
b0xxx0000 c
bx #
bx -
bx 0
bx M
1)
#690
0)
#695
b1000100 .
0H
b10000000000000001000100 &
b10000000000000001000100 6
b10000000000000001000100 \
b10000000000000001000100 d
b1 I
1)
#700
0)
#705
b10110 X
b0 "
b0 ,
b0 2
b0 N
b0 S
b0 s
b10110 Q
b10110 u
b1010110 Y
b1010110 q
b10110 Z
b10110 g
b1010000 K
b1010000 f
b1010000 T
b1010000 r
b10000 R
b10000 t
b10001 P
b10001 w
b10110 V
b10001 U
b100000010000 W
b1 C
b1 J
b1 e
1G
1D
b1011010000110100010010011 !
b1011010000110100010010011 /
b1011010000110100010010011 1
b1011010000110100010010011 O
b10 I
1)
#710
0)
#715
14
b0 Z
b0 g
b0 Y
b0 q
b1010110 %
b1010110 5
b1010110 [
b1010110 v
b1010110 +
0D
b0 C
b0 J
b0 e
1G
b1010110 $
b1010110 3
b1010110 L
b1010110 c
b100 I
1)
#720
0)
#725
1H
0G
b0 %
b0 5
b0 [
b0 v
b0 +
b0 I
b0 $
b0 3
b0 L
b0 c
1)
#730
0)
#735
b1001000 .
0H
b10000000000000001001000 &
b10000000000000001001000 6
b10000000000000001001000 \
b10000000000000001001000 d
b1 I
1)
#740
0)
#745
04
b11110 Y
b11110 q
b1 X
bx "
bx ,
bx 2
bx N
bx S
bx s
bx Q
bx u
b1 Z
b1 g
b111100 K
b111100 f
b111100 T
b111100 r
b1101 R
b1101 t
b10010 P
b10010 w
b1 V
b10010 U
b10010 W
b1000 C
b1000 J
b1000 e
1G
1D
b101101101100100010011 !
b101101101100100010011 /
b101101101100100010011 1
b101101101100100010011 O
b10 I
1)
#750
0)
#755
bx Z
bx g
04
b0xxxx00 Y
b0xxxx00 q
b11110 %
b11110 5
b11110 [
b11110 v
b11110 +
0D
b0 C
b0 J
b0 e
1G
b11110 $
b11110 3
b11110 L
b11110 c
b100 I
1)
#760
0)
#765
1H
0G
b0xxxx00 %
b0xxxx00 5
b0xxxx00 [
b0xxxx00 v
b0xxxx00 +
b0 I
b0xxxx00 $
b0xxxx00 3
b0xxxx00 L
b0xxxx00 c
1)
#770
0)
#775
b1001100 .
0H
b10000000000000001001100 &
b10000000000000001001100 6
b10000000000000001001100 \
b10000000000000001001100 d
b1 I
1)
#780
0)
#785
1F
14
b1100000 Z
b1100000 g
b10000 X
b1100000 "
b1100000 ,
b1100000 2
b1100000 N
b1100000 S
b1100000 s
b1011 Q
b1011 u
b0 Y
b0 q
b1100000 K
b1100000 f
b1100000 T
b1100000 r
b1111 R
b1111 t
b10000 P
b10000 w
b1011 V
b10000 U
b10000 W
b110 C
b110 J
b110 e
b101101111000100001100011 !
b101101111000100001100011 /
b101101111000100001100011 1
b101101111000100001100011 O
b10 I
1)
#790
0)
#795
04
b1100000 Y
b1100000 q
b0 C
b0 J
b0 e
b100 I
1)
#800
0)
#805
1H
b0 I
1)
#810
0)
#815
b1011100 .
0F
0H
b10000000000000001011100 &
b10000000000000001011100 6
b10000000000000001011100 \
b10000000000000001011100 d
b1 I
1)
#820
0)
#825
b0 Z
b0 g
b0 X
14
b0 Y
b0 q
b0 "
b0 ,
b0 2
b0 N
b0 S
b0 s
b0 Q
b0 u
b0 K
b0 f
b0 T
b0 r
b0 R
b0 t
b0 P
b0 w
b0 V
b0 U
b0 W
b0 !
b0 /
b0 1
b0 O
b10 I
1)
#830
0)
#835
b100 I
1)
#840
0)
#845
1H
b0 I
1)
#850
0)
#855
b1100000 .
0H
b10000000000000001100000 &
b10000000000000001100000 6
b10000000000000001100000 \
b10000000000000001100000 d
b1 I
1)
#860
0)
#865
b1111 Z
b1111 g
b1111 X
b1100000 "
b1100000 ,
b1100000 2
b1100000 N
b1100000 S
b1100000 s
b1111 Q
b1111 u
b11110 K
b11110 f
b11110 T
b11110 r
b10010 R
b10010 t
b1001 P
b1001 w
b1111 V
b1001 U
b100000001000 W
b100 C
b100 J
b100 e
1G
1D
b111110010010010010010011 !
b111110010010010010010011 /
b111110010010010010010011 1
b111110010010010010010011 O
b10 I
1)
#870
0)
#875
b1100000 Z
b1100000 g
14
b0 Y
b0 q
b0 %
b0 5
b0 [
b0 v
b0 +
0D
b0 C
b0 J
b0 e
1G
b0 $
b0 3
b0 L
b0 c
b100 I
1)
#880
0)
#885
1H
0G
b0 I
1)
#890
0)
#895
b1100100 .
0H
b10000000000000001100100 &
b10000000000000001100100 6
b10000000000000001100100 \
b10000000000000001100100 d
b1 I
1)
#900
0)
#905
b111010 X
b0 "
b0 ,
b0 2
b0 N
b0 S
b0 s
b11010 Q
b11010 u
04
b1001010 Y
b1001010 q
b111010 Z
b111010 g
b1110000 K
b1110000 f
b1110000 T
b1110000 r
b1000 R
b1000 t
b10011 P
b10011 w
b111010 V
b110011 U
b100000110010 W
b101 C
b101 J
b101 e
1G
1D
b11101001000100100110010011 !
b11101001000100100110010011 /
b11101001000100100110010011 1
b11101001000100100110010011 O
b10 I
1)
#910
0)
#915
14
b0 Z
b0 g
b0 Y
b0 q
b1001010 %
b1001010 5
b1001010 [
b1001010 v
b1001010 +
0D
b0 C
b0 J
b0 e
1G
b1001010 $
b1001010 3
b1001010 L
b1001010 c
b100 I
1)
#920
0)
#925
1H
0G
b0 %
b0 5
b0 [
b0 v
b0 +
b0 I
b0 $
b0 3
b0 L
b0 c
1)
#930
0)
#935
b1101000 .
0H
b10000000000000001101000 &
b10000000000000001101000 6
b10000000000000001101000 \
b10000000000000001101000 d
b1 I
1)
#940
0)
#945
b1 X
bx "
bx ,
bx 2
bx N
bx S
bx s
bx Q
bx u
04
b10101100 Y
b10101100 q
b1 Z
b1 g
b1010110 K
b1010110 f
b1010110 T
b1010110 r
b10001 R
b10001 t
b10100 P
b10100 w
b1 V
b10100 U
b10100 W
b1001 C
b1001 J
b1001 e
1G
1D
b110001001101000010011 !
b110001001101000010011 /
b110001001101000010011 1
b110001001101000010011 O
b10 I
1)
#950
0)
#955
bx Z
bx g
04
b0x0x0xx0 Y
b0x0x0xx0 q
b10101100 %
b10101100 5
b10101100 [
b10101100 v
b10101100 +
0D
b0 C
b0 J
b0 e
1G
b10101100 $
b10101100 3
b10101100 L
b10101100 c
b100 I
1)
#960
0)
#965
1H
0G
b0x0x0xx0 %
b0x0x0xx0 5
b0x0x0xx0 [
b0x0x0xx0 v
b0x0x0xx0 +
b0 I
b0x0x0xx0 $
b0x0x0xx0 3
b0x0x0xx0 L
b0x0x0xx0 c
1)
#970
0)
#975
b1101100 .
0H
b10000000000000001101100 &
b10000000000000001101100 6
b10000000000000001101100 \
b10000000000000001101100 d
b1 I
1)
#980
0)
#985
b10000000010 X
b10101 "
b10101 ,
b10101 2
b10101 N
b10101 S
b10101 s
b10 Q
b10 u
b11000 Y
b11000 q
b10000000010 Z
b10000000010 g
b1100000 K
b1100000 f
b1100000 T
b1100000 r
b1111 R
b1111 t
b101 P
b101 w
b10000000010 V
b10000000101 U
b110000000100 W
b1010 C
b1010 J
b1010 e
1G
1D
b1000000001001111101001010010011 !
b1000000001001111101001010010011 /
b1000000001001111101001010010011 1
b1000000001001111101001010010011 O
b10 I
1)
#990
0)
#995
b10101 Z
b10101 g
14
b0 Y
b0 q
b11000 %
b11000 5
b11000 [
b11000 v
b11000 +
0D
b0 C
b0 J
b0 e
1G
b11000 $
b11000 3
b11000 L
b11000 c
b100 I
1)
#1000
0)
#1005
1H
0G
b0 %
b0 5
b0 [
b0 v
b0 +
b0 I
b0 $
b0 3
b0 L
b0 c
1)
#1010
0)
#1015
b1110000 .
0H
b10000000000000001110000 &
b10000000000000001110000 6
b10000000000000001110000 \
b10000000000000001110000 d
b1 I
1)
#1020
0)
