dump.vcd
$date
	Sun Dec 29 22:56:28 2024
$end
$version
	Icarus Verilog
$end
$timescale
	1ns
$end
$scope module top_proc_tb $end
$var wire 32 ! instr [31:0] $end
$var wire 32 " dWriteData [31:0] $end
$var wire 32 # dReadData [31:0] $end
$var wire 32 $ dAddress [31:0] $end
$var wire 32 % WriteBackData [31:0] $end
$var wire 32 & PC [31:0] $end
$var wire 1 ' MemWrite $end
$var wire 1 ( MemRead $end
$var reg 1 ) clk $end
$var reg 1 * rst $end
$scope module ram_inst $end
$var wire 9 + addr [8:0] $end
$var wire 1 ) clk $end
$var wire 1 ' we $end
$var wire 32 , din [31:0] $end
$var reg 32 - dout [31:0] $end
$upscope $end
$scope module rom_inst $end
$var wire 9 . addr [8:0] $end
$var wire 1 ) clk $end
$var reg 32 / dout [31:0] $end
$upscope $end
$scope module uut $end
$var wire 1 ) clk $end
$var wire 32 0 dReadData [31:0] $end
$var wire 32 1 instr [31:0] $end
$var wire 1 * rst $end
$var wire 32 2 dWriteData [31:0] $end
$var wire 32 3 dAddress [31:0] $end
$var wire 1 4 Zero $end
$var wire 32 5 WriteBackData [31:0] $end
$var wire 32 6 PC [31:0] $end
$var parameter 7 7 BTYPE $end
$var parameter 3 8 DECODE $end
$var parameter 3 9 EXECUTE $end
$var parameter 3 : FETCH $end
$var parameter 32 ; INITIAL_PC $end
$var parameter 7 < ITYPE $end
$var parameter 7 = LOAD $end
$var parameter 3 > MEMORY $end
$var parameter 3 ? NONE $end
$var parameter 7 @ RTYPE $end
$var parameter 7 A STYPE $end
$var parameter 3 B WRITE_BACK $end
$var reg 4 C ALUCtrl [3:0] $end
$var reg 1 D ALUSrc $end
$var reg 1 ( MemRead $end
$var reg 1 E MemToReg $end
$var reg 1 ' MemWrite $end
$var reg 1 F PCSrc $end
$var reg 1 G RegWrite $end
$var reg 1 H loadPC $end
$var reg 3 I state [2:0] $end
$scope module dp $end
$var wire 4 J ALUCtrl [3:0] $end
$var wire 1 D ALUSrc $end
$var wire 1 E MemToReg $end
$var wire 1 F PCSrc $end
$var wire 1 G RegWrite $end
$var wire 32 K alu_op1 [31:0] $end
$var wire 1 ) clk $end
$var wire 32 L dAddress [31:0] $end
$var wire 32 M dReadData [31:0] $end
$var wire 32 N dWriteData [31:0] $end
$var wire 32 O instr [31:0] $end
$var wire 1 H loadPC $end
$var wire 1 * rst $end
$var wire 5 P writeReg [4:0] $end
$var wire 5 Q readReg2 [4:0] $end
$var wire 5 R readReg1 [4:0] $end
$var wire 32 S readData2 [31:0] $end
$var wire 32 T readData1 [31:0] $end
$var wire 32 U imm_S [31:0] $end
$var wire 32 V imm_I_L [31:0] $end
$var wire 32 W imm_B [31:0] $end
$var wire 32 X imm [31:0] $end
$var wire 32 Y alu_result [31:0] $end
$var wire 32 Z alu_op2 [31:0] $end
$var wire 1 4 Zero $end
$var wire 32 [ WriteBackData [31:0] $end
$var wire 32 \ PC [31:0] $end
$var parameter 7 ] BTYPE $end
$var parameter 32 ^ INITIAL_PC $end
$var parameter 7 _ ITYPE $end
$var parameter 7 ` LOAD $end
$var parameter 7 a RTYPE $end
$var parameter 7 b STYPE $end
$var reg 32 c EX_MEM [31:0] $end
$var reg 32 d MEM_WB [31:0] $end
$var reg 32 e currentPC [31:0] $end
$scope module alu_unit $end
$var wire 4 f alu_op [3:0] $end
$var wire 32 g op1 [31:0] $end
$var wire 32 h op2 [31:0] $end
$var parameter 4 i ALUOP_ADD $end
$var parameter 4 j ALUOP_AND $end
$var parameter 4 k ALUOP_LESS $end
$var parameter 4 l ALUOP_LSHIFT $end
$var parameter 4 m ALUOP_NRSHIFT $end
$var parameter 4 n ALUOP_OR $end
$var parameter 4 o ALUOP_RSHIFT $end
$var parameter 4 p ALUOP_SUB $end
$var parameter 4 q ALUOP_XOR $end
$var reg 32 r result [31:0] $end
$var reg 1 4 zero $end
$upscope $end
$scope module register_file $end
$var wire 1 ) clk $end
$var wire 5 s readReg1 [4:0] $end
$var wire 5 t readReg2 [4:0] $end
$var wire 1 G write $end
$var wire 32 u writeData [31:0] $end
$var wire 5 v writeReg [4:0] $end
$var wire 32 w readData2 [31:0] $end
$var wire 32 x readData1 [31:0] $end
$var parameter 32 y DATAWIDTH $end
$var integer 32 z i [31:0] $end
$upscope $end
$upscope $end
$upscope $end
$upscope $end
$enddefinitions $end
$comment Show the parameter values. $end
$dumpall
b100000 y
b101 q
b110 p
b1000 o
b1 n
b1010 m
b1001 l
b100 k
b0 j
b10 i
b100011 b
b110011 a
b11 `
b10011 _
b10000000000000000000000 ^
b1100011 ]
b100 B
b100011 A
b110011 @
b111 ?
b11 >
b11 =
b10011 <
b10000000000000000000000 ;
b0 :
b10 9
b1 8
b1100011 7
$end
#0
$dumpvars
b100000 z
bx x
bx w
bx v
b0 u
bx t
bx s
bx r
bx h
bx g
b0 f
b10000000000000000000000 e
b0 d
b0 c
b10000000000000000000000 \
b0 [
bx Z
bx Y
bx X
bx0 W
bx V
bx U
bx T
bx S
bx R
bx Q
bx P
bx O
bx N
bx M
b0 L
bx K
b0 J
b1 I
xH
0G
0F
0E
xD
b0 C
b10000000000000000000000 6
b0 5
04
b0 3
bx 2
bx 1
bx 0
bx /
b0 .
bx -
bx ,
b0 +
1*
0)
0(
0'
b10000000000000000000000 &
b0 %
b0 $
bx #
bx "
bx !
$end
#2
0*
#5
b111 Y
b111 r
b0 "
b0 ,
b0 2
b0 N
b0 S
b0 w
b111 Z
b111 h
b0 K
b0 g
b0 T
b0 x
b111 Q
b111 t
b111 X
b0 R
b0 s
b1 P
b1 v
b111 V
b1 U
b100000000000 W
b10 C
b10 J
b10 f
1D
bx +
b11100000000000010010011 !
b11100000000000010010011 /
b11100000000000010010011 1
b11100000000000010010011 O
b10 I
bx $
bx 3
bx L
bx c
1)
#10
0)
#15
14
b0 Y
b0 r
b111 +
bx %
bx 5
bx [
bx u
b0 C
b0 J
b0 f
b111 $
b111 3
b111 L
b111 c
bx d
b11 I
1)
#20
0)
#25
b0 Z
b0 h
1G
0D
1H
b0 +
b111 %
b111 5
b111 [
b111 u
b100 I
b0 $
b0 3
b0 L
b0 c
b111 d
1)
#30
0)
#35
b100 .
b0 %
b0 5
b0 [
b0 u
0H
0G
b10000000000000000000100 &
b10000000000000000000100 6
b10000000000000000000100 \
b10000000000000000000100 e
b0 d
b0 I
1)
#40
0)
#45
bx Z
bx h
bx "
bx ,
bx 2
bx N
bx S
bx w
b10101 X
bx Q
bx t
b10 P
b10 v
b10101 V
b10 U
b10 W
b1010100000000000100010011 !
b1010100000000000100010011 /
b1010100000000000100010011 1
b1010100000000000100010011 O
b1 I
1)
#50
0)
#55
04
b10101 Y
b10101 r
b10101 Z
b10101 h
b10 C
b10 J
b10 f
1D
b10 I
1)
#60
0)
#65
14
b0 Y
b0 r
b0 C
b0 J
b0 f
b10101 +
b11 I
b10101 $
b10101 3
b10101 L
b10101 c
1)
#70
0)
#75
bx Z
bx h
b0 +
b10101 %
b10101 5
b10101 [
b10101 u
1G
0D
1H
b0 $
b0 3
b0 L
b0 c
b10101 d
b100 I
1)
#80
0)
#85
0H
0G
b0 %
b0 5
b0 [
b0 u
b1000 .
b0 I
b0 d
b10000000000000000001000 &
b10000000000000000001000 6
b10000000000000000001000 \
b10000000000000000001000 e
1)
#90
0)
#95
b10101 Z
b10101 h
04
b101 Y
b101 r
b10101 "
b10101 ,
b10101 2
b10101 N
b10101 S
b10101 w
b10 X
b111 K
b111 g
b111 T
b111 x
b10 Q
b10 t
b1 R
b1 s
b11 P
b11 v
b10 V
b11 U
b100000000010 W
b1000001000000110110011 !
b1000001000000110110011 /
b1000001000000110110011 1
b1000001000000110110011 O
b1 I
1)
#100
0)
#105
b11100 Y
b11100 r
b10 C
b10 J
b10 f
b101 +
b10 I
b101 $
b101 3
b101 L
b101 c
1)
#110
0)
#115
b101 Y
b101 r
b11100 +
b101 %
b101 5
b101 [
b101 u
b0 C
b0 J
b0 f
b11100 $
b11100 3
b11100 L
b11100 c
b101 d
b11 I
1)
#120
0)
#125
1G
1H
b101 +
b11100 %
b11100 5
b11100 [
b11100 u
b100 I
b101 $
b101 3
b101 L
b101 c
b11100 d
1)
#130
0)
#135
b1100 .
b101 %
b101 5
b101 [
b101 u
0H
0G
b10000000000000000001100 &
b10000000000000000001100 6
b10000000000000000001100 \
b10000000000000000001100 e
b101 d
b0 I
1)
#140
0)
#145
bx Z
bx h
14
b0 Y
b0 r
bx "
bx ,
bx 2
bx N
bx S
bx w
b11111111111111111111111111110111 X
b0 K
b0 g
b0 T
b0 x
bx Q
bx t
b0 R
b0 s
b100 P
b100 v
b11111111111111111111111111110111 V
b11111111111111111111111111100100 U
b11111111111111111111011111100100 W
b11111111011100000000001000010011 !
b11111111011100000000001000010011 /
b11111111011100000000001000010011 1
b11111111011100000000001000010011 O
b1 I
1)
#150
0)
#155
04
b11111111111111111111111111110111 Y
b11111111111111111111111111110111 r
b11111111111111111111111111110111 Z
b11111111111111111111111111110111 h
b0 +
b10 C
b10 J
b10 f
1D
b0 $
b0 3
b0 L
b0 c
b10 I
1)
#160
0)
#165
14
b0 Y
b0 r
b0 C
b0 J
b0 f
b111110111 +
b0 %
b0 5
b0 [
b0 u
b11 I
b11111111111111111111111111110111 $
b11111111111111111111111111110111 3
b11111111111111111111111111110111 L
b11111111111111111111111111110111 c
b0 d
1)
#170
0)
#175
bx Z
bx h
b0 +
b11111111111111111111111111110111 %
b11111111111111111111111111110111 5
b11111111111111111111111111110111 [
b11111111111111111111111111110111 u
1G
0D
1H
b0 $
b0 3
b0 L
b0 c
b11111111111111111111111111110111 d
b100 I
1)
#180
0)
#185
0H
0G
b0 %
b0 5
b0 [
b0 u
b10000 .
b0 I
b0 d
b10000000000000000010000 &
b10000000000000000010000 6
b10000000000000000010000 \
b10000000000000000010000 e
1)
#190
0)
#195
b0 Z
b0 h
14
b0 Y
b0 r
b0 "
b0 ,
b0 2
b0 N
b0 S
b0 w
b11111111111111111111111111101111 X
b10101 K
b10101 g
b10101 T
b10101 x
b1111 Q
b1111 t
b10 R
b10 s
b101 P
b101 v
b11111111111111111111111111101111 V
b11111111111111111111111111100101 U
b11111111111111111111111111100100 W
b11111110111100010000001010010011 !
b11111110111100010000001010010011 /
b11111110111100010000001010010011 1
b11111110111100010000001010010011 O
b1 I
1)
#200
0)
#205
04
b100 Y
b100 r
b11111111111111111111111111101111 Z
b11111111111111111111111111101111 h
b10 C
b10 J
b10 f
1D
b10 I
1)
#210
0)
#215
b101 Y
b101 r
b100 +
b0 C
b0 J
b0 f
b100 $
b100 3
b100 L
b100 c
b11 I
1)
#220
0)
#225
14
b0 Y
b0 r
b0 Z
b0 h
1G
0D
1H
b101 +
b100 %
b100 5
b100 [
b100 u
b100 I
b101 $
b101 3
b101 L
b101 c
b100 d
1)
#230
0)
#235
b10100 .
b0 +
b101 %
b101 5
b101 [
b101 u
0H
0G
b10000000000000000010100 &
b10000000000000000010100 6
b10000000000000000010100 \
b10000000000000000010100 e
b0 $
b0 3
b0 L
b0 c
b101 d
b0 I
1)
#240
0)
#245
04
b100 Y
b100 r
b11111111111111111111111111110111 Z
b11111111111111111111111111110111 h
b11111111111111111111111111110111 "
b11111111111111111111111111110111 ,
b11111111111111111111111111110111 2
b11111111111111111111111111110111 N
b11111111111111111111111111110111 S
b11111111111111111111111111110111 w
b100 X
b100 K
b100 g
b100 T
b100 x
b100 Q
b100 t
b101 R
b101 s
b110 P
b110 v
b100 V
b110 U
b110 W
b0 %
b0 5
b0 [
b0 u
b10000101000001100110011 !
b10000101000001100110011 /
b10000101000001100110011 1
b10000101000001100110011 O
b1 I
b0 d
1)
#250
0)
#255
b11111111111111111111111111111011 Y
b11111111111111111111111111111011 r
b100 +
b10 C
b10 J
b10 f
b100 $
b100 3
b100 L
b100 c
b10 I
1)
#260
0)
#265
b100 Y
b100 r
b0 C
b0 J
b0 f
b111111011 +
b100 %
b100 5
b100 [
b100 u
b11 I
b11111111111111111111111111111011 $
b11111111111111111111111111111011 3
b11111111111111111111111111111011 L
b11111111111111111111111111111011 c
b100 d
1)
#270
0)
#275
b100 +
b11111111111111111111111111111011 %
b11111111111111111111111111111011 5
b11111111111111111111111111111011 [
b11111111111111111111111111111011 u
1G
1H
b100 $
b100 3
b100 L
b100 c
b11111111111111111111111111111011 d
b100 I
1)
#280
0)
#285
0H
0G
b100 %
b100 5
b100 [
b100 u
b11000 .
b0 I
b100 d
b10000000000000000011000 &
b10000000000000000011000 6
b10000000000000000011000 \
b10000000000000000011000 e
1)
#290
0)
#295
b10101 Z
b10101 h
b10100 Y
b10100 r
b10101 "
b10101 ,
b10101 2
b10101 N
b10101 S
b10101 w
b10000000010 X
b11100 K
b11100 g
b11100 T
b11100 x
b10 Q
b10 t
b11 R
b11 s
b111 P
b111 v
b10000000010 V
b10000000111 U
b110000000110 W
b1000000001000011000001110110011 !
b1000000001000011000001110110011 /
b1000000001000011000001110110011 1
b1000000001000011000001110110011 O
b1 I
1)
#300
0)
#305
b111 Y
b111 r
b110 C
b110 J
b110 f
b10100 +
b10 I
b10100 $
b10100 3
b10100 L
b10100 c
1)
#310
0)
#315
b10100 Y
b10100 r
b111 +
b10100 %
b10100 5
b10100 [
b10100 u
b0 C
b0 J
b0 f
b111 $
b111 3
b111 L
b111 c
b10100 d
b11 I
1)
#320
0)
#325
1G
1H
b10100 +
b111 %
b111 5
b111 [
b111 u
b100 I
b10100 $
b10100 3
b10100 L
b10100 c
b111 d
1)
#330
0)
#335
b11100 .
b10100 %
b10100 5
b10100 [
b10100 u
0H
0G
b10000000000000000011100 &
b10000000000000000011100 6
b10000000000000000011100 \
b10000000000000000011100 e
b10100 d
b0 I
1)
#340
0)
#345
b100 Z
b100 h
b100 Y
b100 r
b100 "
b100 ,
b100 2
b100 N
b100 S
b100 w
b101 X
b111 K
b111 g
b111 T
b111 x
b101 Q
b101 t
b111 R
b111 s
b1000 P
b1000 v
b101 V
b1000 U
b1000 W
b10100111001010000110011 !
b10100111001010000110011 /
b10100111001010000110011 1
b10100111001010000110011 O
b1 I
1)
#350
0)
#355
b1110000 Y
b1110000 r
b100 +
b1001 C
b1001 J
b1001 f
b100 $
b100 3
b100 L
b100 c
b10 I
1)
#360
0)
#365
b100 Y
b100 r
b0 C
b0 J
b0 f
b1110000 +
b100 %
b100 5
b100 [
b100 u
b11 I
b1110000 $
b1110000 3
b1110000 L
b1110000 c
b100 d
1)
#370
0)
#375
b100 +
b1110000 %
b1110000 5
b1110000 [
b1110000 u
1G
1H
b100 $
b100 3
b100 L
b100 c
b1110000 d
b100 I
1)
#380
0)
#385
0H
0G
b100 %
b100 5
b100 [
b100 u
b100000 .
b0 I
b100 d
b10000000000000000100000 &
b10000000000000000100000 6
b10000000000000000100000 \
b10000000000000000100000 e
1)
#390
0)
#395
b1110000 Y
b1110000 r
b1110000 Z
b1110000 h
b1110000 "
b1110000 ,
b1110000 2
b1110000 N
b1110000 S
b1110000 w
b1000 X
b11111111111111111111111111110111 K
b11111111111111111111111111110111 g
b11111111111111111111111111110111 T
b11111111111111111111111111110111 x
b1000 Q
b1000 t
b100 R
b100 s
b1001 P
b1001 v
b1000 V
b1001 U
b100000001000 W
b100000100010010010110011 !
b100000100010010010110011 /
b100000100010010010110011 1
b100000100010010010110011 O
b1 I
1)
#400
0)
#405
b1 Y
b1 r
b100 C
b100 J
b100 f
b1110000 +
b10 I
b1110000 $
b1110000 3
b1110000 L
b1110000 c
1)
#410
0)
#415
b1110000 Y
b1110000 r
b1 +
b1110000 %
b1110000 5
b1110000 [
b1110000 u
b0 C
b0 J
b0 f
b1 $
b1 3
b1 L
b1 c
b1110000 d
b11 I
1)
#420
0)
#425
1G
1H
b1110000 +
b1 %
b1 5
b1 [
b1 u
b100 I
b1110000 $
b1110000 3
b1110000 L
b1110000 c
b1 d
1)
#430
0)
#435
b100100 .
b1110000 %
b1110000 5
b1110000 [
b1110000 u
0H
0G
b10000000000000000100100 &
b10000000000000000100100 6
b10000000000000000100100 \
b10000000000000000100100 e
b1110000 d
b0 I
1)
#440
0)
#445
b10000 Y
b10000 r
b10101 Z
b10101 h
b10101 "
b10101 ,
b10101 2
b10101 N
b10101 S
b10101 w
b10 X
b1110000 K
b1110000 g
b1110000 T
b1110000 x
b10 Q
b10 t
b1000 R
b1000 s
b1010 P
b1010 v
b10 V
b1010 U
b1010 W
b1001000100010100110011 !
b1001000100010100110011 /
b1001000100010100110011 1
b1001000100010100110011 O
b1 I
1)
#450
0)
#455
b1100101 Y
b1100101 r
b10000 +
b101 C
b101 J
b101 f
b10000 $
b10000 3
b10000 L
b10000 c
b10 I
1)
#460
0)
#465
b10000 Y
b10000 r
b0 C
b0 J
b0 f
b1100101 +
b10000 %
b10000 5
b10000 [
b10000 u
b11 I
b1100101 $
b1100101 3
b1100101 L
b1100101 c
b10000 d
1)
#470
0)
#475
b10000 +
b1100101 %
b1100101 5
b1100101 [
b1100101 u
1G
1H
b10000 $
b10000 3
b10000 L
b10000 c
b1100101 d
b100 I
1)
#480
0)
#485
0H
0G
b10000 %
b10000 5
b10000 [
b10000 u
b101000 .
b0 I
b10000 d
b10000000000000000101000 &
b10000000000000000101000 6
b10000000000000000101000 \
b10000000000000000101000 e
1)
#490
0)
#495
b1110000 Z
b1110000 h
b1100000 Y
b1100000 r
b1110000 "
b1110000 ,
b1110000 2
b1110000 N
b1110000 S
b1110000 w
b1000 X
b1100101 K
b1100101 g
b1100101 T
b1100101 x
b1000 Q
b1000 t
b1010 R
b1010 s
b1011 P
b1011 v
b1000 V
b1011 U
b100000001010 W
b100001010111010110110011 !
b100001010111010110110011 /
b100001010111010110110011 1
b100001010111010110110011 O
b1 I
1)
#500
0)
#505
b1100000 +
b10 I
b1100000 $
b1100000 3
b1100000 L
b1100000 c
1)
#510
0)
#515
b1100000 %
b1100000 5
b1100000 [
b1100000 u
b1100000 d
b11 I
1)
#520
0)
#525
1G
1H
b100 I
1)
#530
0)
#535
b101100 .
0H
0G
b10000000000000000101100 &
b10000000000000000101100 6
b10000000000000000101100 \
b10000000000000000101100 e
b0 I
1)
#540
0)
#545
14
b0 Y
b0 r
b1 Z
b1 h
b1 "
b1 ,
b1 2
b1 N
b1 S
b1 w
b1001 X
b1100000 K
b1100000 g
b1100000 T
b1100000 x
b1001 Q
b1001 t
b1011 R
b1011 s
b1100 P
b1100 v
b1001 V
b1100 U
b1100 W
b100101011101011000110011 !
b100101011101011000110011 /
b100101011101011000110011 1
b100101011101011000110011 O
b1 I
1)
#550
0)
#555
04
b110000 Y
b110000 r
b0 +
b1000 C
b1000 J
b1000 f
b0 $
b0 3
b0 L
b0 c
b10 I
1)
#560
0)
#565
14
b0 Y
b0 r
b0 C
b0 J
b0 f
b110000 +
b0 %
b0 5
b0 [
b0 u
b11 I
b110000 $
b110000 3
b110000 L
b110000 c
b0 d
1)
#570
0)
#575
b0 +
b110000 %
b110000 5
b110000 [
b110000 u
1G
1H
b0 $
b0 3
b0 L
b0 c
b110000 d
b100 I
1)
#580
0)
#585
0H
0G
b0 %
b0 5
b0 [
b0 u
b110000 .
b0 I
b0 d
b10000000000000000110000 &
b10000000000000000110000 6
b10000000000000000110000 \
b10000000000000000110000 e
1)
#590
0)
#595
04
b10000 Y
b10000 r
b11100 Z
b11100 h
b11100 "
b11100 ,
b11100 2
b11100 N
b11100 S
b11100 w
b11 X
b110000 K
b110000 g
b110000 T
b110000 x
b11 Q
b11 t
b1100 R
b1100 s
b1101 P
b1101 v
b11 V
b1101 U
b100000001100 W
b1101100110011010110011 !
b1101100110011010110011 /
b1101100110011010110011 1
b1101100110011010110011 O
b1 I
1)
#600
0)
#605
b111100 Y
b111100 r
b1 C
b1 J
b1 f
b10000 +
b10 I
b10000 $
b10000 3
b10000 L
b10000 c
1)
#610
0)
#615
b10000 Y
b10000 r
b111100 +
b10000 %
b10000 5
b10000 [
b10000 u
b0 C
b0 J
b0 f
b111100 $
b111100 3
b111100 L
b111100 c
b10000 d
b11 I
1)
#620
0)
#625
1G
1H
b10000 +
b111100 %
b111100 5
b111100 [
b111100 u
b100 I
b10000 $
b10000 3
b10000 L
b10000 c
b111100 d
1)
#630
0)
#635
b110100 .
b10000 %
b10000 5
b10000 [
b10000 u
0H
0G
b10000000000000000110100 &
b10000000000000000110100 6
b10000000000000000110100 \
b10000000000000000110100 e
b10000 d
b0 I
1)
#640
0)
#645
b1 Z
b1 h
b1 Y
b1 r
b1 "
b1 ,
b1 2
b1 N
b1 S
b1 w
b10000001001 X
b11111111111111111111111111110111 K
b11111111111111111111111111110111 g
b11111111111111111111111111110111 T
b11111111111111111111111111110111 x
b1001 Q
b1001 t
b100 R
b100 s
b1110 P
b1110 v
b10000001001 V
b10000001110 U
b10000001110 W
b1000000100100100101011100110011 !
b1000000100100100101011100110011 /
b1000000100100100101011100110011 1
b1000000100100100101011100110011 O
b1 I
1)
#650
0)
#655
b11111111111111111111111111111011 Y
b11111111111111111111111111111011 r
b1 +
b1010 C
b1010 J
b1010 f
b1 $
b1 3
b1 L
b1 c
b10 I
1)
#660
0)
#665
b1 Y
b1 r
b0 C
b0 J
b0 f
b111111011 +
b1 %
b1 5
b1 [
b1 u
b11 I
b11111111111111111111111111111011 $
b11111111111111111111111111111011 3
b11111111111111111111111111111011 L
b11111111111111111111111111111011 c
b1 d
1)
#670
0)
#675
b1 +
b11111111111111111111111111111011 %
b11111111111111111111111111111011 5
b11111111111111111111111111111011 [
b11111111111111111111111111111011 u
1G
1H
b1 $
b1 3
b1 L
b1 c
b11111111111111111111111111111011 d
b100 I
1)
#680
0)
#685
0H
0G
b1 %
b1 5
b1 [
b1 u
b111000 .
b0 I
b1 d
b10000000000000000111000 &
b10000000000000000111000 6
b10000000000000000111000 \
b10000000000000000111000 e
1)
#690
0)
#695
b1100000 Z
b1100000 h
14
b0 Y
b0 r
b1100000 "
b1100000 ,
b1100000 2
b1100000 N
b1100000 S
b1100000 w
b100 K
b100 g
b100 T
b100 x
b1011 Q
b1011 t
b0 X
b101 R
b101 s
b0 P
b0 v
b1011 V
b0 U
b0 W
b101100101010000000100011 !
b101100101010000000100011 /
b101100101010000000100011 1
b101100101010000000100011 O
b1 I
1)
#700
0)
#705
b0 Z
b0 h
04
b100 Y
b100 r
1D
b10 C
b10 J
b10 f
b0 +
b10 I
b0 $
b0 3
b0 L
b0 c
1)
#710
0)
#715
14
b0 Y
b0 r
b100 +
b0 %
b0 5
b0 [
b0 u
1'
b0 C
b0 J
b0 f
b100 $
b100 3
b100 L
b100 c
b0 d
b11 I
1)
#720
0)
#725
b1100000 Z
b1100000 h
0D
1H
0'
b0 +
b100 %
b100 5
b100 [
b100 u
b100 I
b0 $
b0 3
b0 L
b0 c
b100 d
1)
#730
0)
#735
b111100 .
b0 %
b0 5
b0 [
b0 u
0H
b10000000000000000111100 &
b10000000000000000111100 6
b10000000000000000111100 \
b10000000000000000111100 e
b0 d
b0 I
1)
#740
0)
#745
b0 Z
b0 h
b0 "
b0 ,
b0 2
b0 N
b0 S
b0 w
b0 Q
b0 t
b0 X
b1111 P
b1111 v
b0 V
b1111 U
b100000001110 W
b101010011110000011 !
b101010011110000011 /
b101010011110000011 1
b101010011110000011 O
b1 I
1)
#750
0)
#755
04
b100 Y
b100 r
1D
b10 C
b10 J
b10 f
b10 I
1)
#760
0)
#765
14
b0 Y
b0 r
1(
b0 C
b0 J
b0 f
b100 +
b11 I
b100 $
b100 3
b100 L
b100 c
1)
#770
0)
#775
b0 +
b1100000 %
b1100000 5
b1100000 [
b1100000 u
1E
1G
0D
1H
0(
b0 $
b0 3
b0 L
b0 c
b100 d
b100 I
b1100000 #
b1100000 -
b1100000 0
b1100000 M
1)
#780
0)
#785
0H
0E
0G
b1000000 .
b0 I
b0 d
b10000000000000001000000 &
b10000000000000001000000 6
b10000000000000001000000 \
b10000000000000001000000 e
b0 %
b0 5
b0 [
b0 u
bx #
bx -
bx 0
bx M
1)
#790
0)
#795
04
b0xxx0000 Y
b0xxx0000 r
bx Z
bx h
bx "
bx ,
bx 2
bx N
bx S
bx w
b11111111111111111111111111010011 X
b1110000 K
b1110000 g
b1110000 T
b1110000 x
bx Q
bx t
b1000 R
b1000 s
b10000 P
b10000 v
b11111111111111111111111111010011 V
b11111111111111111111111111010000 U
b11111111111111111111011111010000 W
b11111101001101000111100000010011 !
b11111101001101000111100000010011 /
b11111101001101000111100000010011 1
b11111101001101000111100000010011 O
b1 I
1)
#800
0)
#805
b1010000 Y
b1010000 r
b11111111111111111111111111010011 Z
b11111111111111111111111111010011 h
1D
b0xxx0000 +
b10 I
b0xxx0000 $
b0xxx0000 3
b0xxx0000 L
b0xxx0000 c
1)
#810
0)
#815
b1010000 +
b0xxx0000 %
b0xxx0000 5
b0xxx0000 [
b0xxx0000 u
b1010000 $
b1010000 3
b1010000 L
b1010000 c
b0xxx0000 d
b11 I
1)
#820
0)
#825
b0xxx0000 Y
b0xxx0000 r
bx Z
bx h
1G
0D
1H
b1010000 %
b1010000 5
b1010000 [
b1010000 u
b100 I
b1010000 d
1)
#830
0)
#835
b1000100 .
b0xxx0000 +
0H
0G
b10000000000000001000100 &
b10000000000000001000100 6
b10000000000000001000100 \
b10000000000000001000100 e
b0xxx0000 $
b0xxx0000 3
b0xxx0000 L
b0xxx0000 c
b0 I
1)
#840
0)
#845
14
b0 Z
b0 h
b0 Y
b0 r
b0 "
b0 ,
b0 2
b0 N
b0 S
b0 w
b10110 X
b1010000 K
b1010000 g
b1010000 T
b1010000 x
b10110 Q
b10110 t
b10000 R
b10000 s
b10001 P
b10001 v
b10110 V
b10001 U
b100000010000 W
b0xxx0000 %
b0xxx0000 5
b0xxx0000 [
b0xxx0000 u
b1011010000110100010010011 !
b1011010000110100010010011 /
b1011010000110100010010011 1
b1011010000110100010010011 O
b1 I
b0xxx0000 d
1)
#850
0)
#855
04
b1010110 Y
b1010110 r
b10110 Z
b10110 h
b0 +
b1 C
b1 J
b1 f
1D
b0 $
b0 3
b0 L
b0 c
b10 I
1)
#860
0)
#865
b10000 Y
b10000 r
b0 C
b0 J
b0 f
b1010110 +
b0 %
b0 5
b0 [
b0 u
b11 I
b1010110 $
b1010110 3
b1010110 L
b1010110 c
b0 d
1)
#870
0)
#875
14
b0 Y
b0 r
b0 Z
b0 h
b10000 +
b1010110 %
b1010110 5
b1010110 [
b1010110 u
1G
0D
1H
b10000 $
b10000 3
b10000 L
b10000 c
b1010110 d
b100 I
1)
#880
0)
#885
0H
0G
b0 +
b10000 %
b10000 5
b10000 [
b10000 u
b1001000 .
b0 I
b0 $
b0 3
b0 L
b0 c
b10000 d
b10000000000000001001000 &
b10000000000000001001000 6
b10000000000000001001000 \
b10000000000000001001000 e
1)
#890
0)
#895
04
b0xxxx00 Y
b0xxxx00 r
bx Z
bx h
bx "
bx ,
bx 2
bx N
bx S
bx w
b1 X
b111100 K
b111100 g
b111100 T
b111100 x
bx Q
bx t
b1101 R
b1101 s
b10010 P
b10010 v
b1 V
b10010 U
b10010 W
b0 %
b0 5
b0 [
b0 u
b101101101100100010011 !
b101101101100100010011 /
b101101101100100010011 1
b101101101100100010011 O
b0 d
b1 I
1)
#900
0)
#905
b11110 Y
b11110 r
b1 Z
b1 h
b1000 C
b1000 J
b1000 f
1D
b0xxxx00 +
b10 I
b0xxxx00 $
b0xxxx00 3
b0xxxx00 L
b0xxxx00 c
1)
#910
0)
#915
14
b0 Y
b0 r
b11110 +
b0xxxx00 %
b0xxxx00 5
b0xxxx00 [
b0xxxx00 u
b0 C
b0 J
b0 f
b11110 $
b11110 3
b11110 L
b11110 c
b0xxxx00 d
b11 I
1)
#920
0)
#925
04
b0xxxx00 Y
b0xxxx00 r
bx Z
bx h
1G
0D
1H
b0 +
b11110 %
b11110 5
b11110 [
b11110 u
b100 I
b0 $
b0 3
b0 L
b0 c
b11110 d
1)
#930
0)
#935
b1001100 .
b0xxxx00 +
b0 %
b0 5
b0 [
b0 u
0H
0G
b10000000000000001001100 &
b10000000000000001001100 6
b10000000000000001001100 \
b10000000000000001001100 e
b0xxxx00 $
b0xxxx00 3
b0xxxx00 L
b0xxxx00 c
b0 d
b0 I
1)
#940
0)
#945
b1100000 Z
b1100000 h
b1100000 Y
b1100000 r
b1100000 "
b1100000 ,
b1100000 2
b1100000 N
b1100000 S
b1100000 w
b10000 X
b1100000 K
b1100000 g
b1100000 T
b1100000 x
b1011 Q
b1011 t
b1111 R
b1111 s
b10000 P
b10000 v
b1011 V
b10000 U
b10000 W
b0xxxx00 %
b0xxxx00 5
b0xxxx00 [
b0xxxx00 u
b101101111000100001100011 !
b101101111000100001100011 /
b101101111000100001100011 1
b101101111000100001100011 O
b1 I
b0xxxx00 d
1)
#950
0)
#955
1F
14
b0 Y
b0 r
b1100000 +
b110 C
b110 J
b110 f
b1100000 $
b1100000 3
b1100000 L
b1100000 c
b10 I
1)
#960
0)
#965
04
b1100000 Y
b1100000 r
b0 C
b0 J
b0 f
b0 +
b1100000 %
b1100000 5
b1100000 [
b1100000 u
b11 I
b0 $
b0 3
b0 L
b0 c
b1100000 d
1)
#970
0)
#975
b1100000 +
b0 %
b0 5
b0 [
b0 u
1H
b1100000 $
b1100000 3
b1100000 L
b1100000 c
b0 d
b100 I
1)
#980
0)
#985
0H
b1100000 %
b1100000 5
b1100000 [
b1100000 u
b1011100 .
b0 I
b1100000 d
b10000000000000001011100 &
b10000000000000001011100 6
b10000000000000001011100 \
b10000000000000001011100 e
1)
#990
0)
