dump.vcd
$date
	Mon Dec 23 02:18:46 2024
$end
$version
	Icarus Verilog
$end
$timescale
	1ns
$end
$scope module top_proc_tb $end
$var wire 32 ! instr [31:0] $end
$var wire 32 " dWriteData [31:0] $end
$var wire 32 # dReadData [31:0] $end
$var wire 32 $ dAddress [31:0] $end
$var wire 32 % WriteBackData [31:0] $end
$var wire 32 & PC [31:0] $end
$var wire 1 ' MemWrite $end
$var wire 1 ( MemRead $end
$var reg 1 ) clk $end
$var reg 1 * rst $end
$scope module ram_inst $end
$var wire 9 + addr [8:0] $end
$var wire 1 ) clk $end
$var wire 1 ' we $end
$var wire 32 , din [31:0] $end
$var reg 32 - dout [31:0] $end
$upscope $end
$scope module rom_inst $end
$var wire 9 . addr [8:0] $end
$var wire 1 ) clk $end
$var reg 32 / dout [31:0] $end
$upscope $end
$scope module uut $end
$var wire 1 ) clk $end
$var wire 32 0 dReadData [31:0] $end
$var wire 32 1 instr [31:0] $end
$var wire 1 * rst $end
$var wire 32 2 dWriteData [31:0] $end
$var wire 32 3 dAddress [31:0] $end
$var wire 1 4 Zero $end
$var wire 32 5 WriteBackData [31:0] $end
$var wire 32 6 PC [31:0] $end
$var parameter 7 7 BTYPE $end
$var parameter 3 8 DECODE $end
$var parameter 3 9 EXECUTE $end
$var parameter 3 : FETCH $end
$var parameter 32 ; INITIAL_PC $end
$var parameter 7 < ITYPE $end
$var parameter 7 = LOAD $end
$var parameter 3 > MEMORY $end
$var parameter 3 ? NONE $end
$var parameter 7 @ RTYPE $end
$var parameter 7 A STYPE $end
$var parameter 3 B WRITE_BACK $end
$var reg 4 C ALUCtrl [3:0] $end
$var reg 1 D ALUSrc $end
$var reg 1 ( MemRead $end
$var reg 1 E MemToReg $end
$var reg 1 ' MemWrite $end
$var reg 1 F PCSrc $end
$var reg 1 G RegWrite $end
$var reg 1 H loadPC $end
$var reg 3 I state [2:0] $end
$scope module dp $end
$var wire 4 J ALUCtrl [3:0] $end
$var wire 1 D ALUSrc $end
$var wire 1 E MemToReg $end
$var wire 1 F PCSrc $end
$var wire 1 G RegWrite $end
$var wire 32 K alu_op1 [31:0] $end
$var wire 1 ) clk $end
$var wire 32 L dAddress [31:0] $end
$var wire 32 M dReadData [31:0] $end
$var wire 32 N dWriteData [31:0] $end
$var wire 32 O instr [31:0] $end
$var wire 1 H loadPC $end
$var wire 1 * rst $end
$var wire 5 P writeReg [4:0] $end
$var wire 5 Q readReg2 [4:0] $end
$var wire 5 R readReg1 [4:0] $end
$var wire 32 S readData2 [31:0] $end
$var wire 32 T readData1 [31:0] $end
$var wire 32 U imm_S [31:0] $end
$var wire 32 V imm_I_L [31:0] $end
$var wire 32 W imm_B [31:0] $end
$var wire 32 X imm [31:0] $end
$var wire 32 Y alu_result [31:0] $end
$var wire 32 Z alu_op2 [31:0] $end
$var wire 1 4 Zero $end
$var wire 32 [ WriteBackData [31:0] $end
$var wire 32 \ PC [31:0] $end
$var parameter 7 ] BTYPE $end
$var parameter 32 ^ INITIAL_PC $end
$var parameter 7 _ ITYPE $end
$var parameter 7 ` LOAD $end
$var parameter 7 a RTYPE $end
$var parameter 7 b STYPE $end
$var reg 32 c alu_result_latched [31:0] $end
$var reg 32 d currentPC [31:0] $end
$scope module alu_unit $end
$var wire 4 e alu_op [3:0] $end
$var wire 32 f op1 [31:0] $end
$var wire 32 g op2 [31:0] $end
$var parameter 4 h ALUOP_ADD $end
$var parameter 4 i ALUOP_AND $end
$var parameter 4 j ALUOP_LESS $end
$var parameter 4 k ALUOP_LSHIFT $end
$var parameter 4 l ALUOP_NRSHIFT $end
$var parameter 4 m ALUOP_OR $end
$var parameter 4 n ALUOP_RSHIFT $end
$var parameter 4 o ALUOP_SUB $end
$var parameter 4 p ALUOP_XOR $end
$var reg 32 q result [31:0] $end
$var reg 1 4 zero $end
$upscope $end
$scope module register_file $end
$var wire 1 ) clk $end
$var wire 32 r readData1 [31:0] $end
$var wire 32 s readData2 [31:0] $end
$var wire 5 t readReg1 [4:0] $end
$var wire 5 u readReg2 [4:0] $end
$var wire 1 G write $end
$var wire 32 v writeData [31:0] $end
$var wire 5 w writeReg [4:0] $end
$var parameter 32 x DATAWIDTH $end
$var integer 32 y i [31:0] $end
$upscope $end
$upscope $end
$upscope $end
$upscope $end
$enddefinitions $end
$comment Show the parameter values. $end
$dumpall
b100000 x
b101 p
b110 o
b1000 n
b1 m
b1010 l
b1001 k
b100 j
b0 i
b10 h
b100011 b
b110011 a
b11 `
b10011 _
b10000000000000000000000 ^
b1100011 ]
b100 B
b100011 A
b110011 @
b111 ?
b11 >
b11 =
b10011 <
b10000000000000000000000 ;
b0 :
b10 9
b1 8
b1100011 7
$end
#0
$dumpvars
b100000 y
bx w
b0 v
bx u
bx t
bx s
bx r
bx q
bx g
bx f
b0 e
b10000000000000000000000 d
b0 c
b10000000000000000000000 \
b0 [
bx Z
bx Y
bx X
bx0 W
bx V
bx U
bx T
bx S
bx R
bx Q
bx P
bx O
bx N
bx M
b0 L
bx K
b0 J
b1 I
0H
0G
0F
0E
0D
b0 C
b10000000000000000000000 6
b0 5
04
b0 3
bx 2
bx 1
bx 0
bx /
b0 .
bx -
bx ,
b0 +
1*
0)
0(
0'
b10000000000000000000000 &
b0 %
b0 $
bx #
bx "
bx !
$end
#2
0*
#5
1F
14
b0 Y
b0 q
b0 Z
b0 g
b0 "
b0 ,
b0 2
b0 N
b0 S
b0 s
b110 Q
b110 u
b1100 X
b0 K
b0 f
b0 T
b0 r
b101 R
b101 t
b1100 P
b1100 w
b110 V
b1100 U
b1100 W
b110 C
b110 J
b110 e
b11000101000011001100011 !
b11000101000011001100011 /
b11000101000011001100011 1
b11000101000011001100011 O
b10 I
1)
#10
0)
#15
b0 C
b0 J
b0 e
b100 I
1)
#20
0)
#25
1H
b0 I
1)
#30
0)
#35
b1100 .
0F
0H
b10000000000000000001100 &
b10000000000000000001100 6
b10000000000000000001100 \
b10000000000000000001100 d
b1 I
1)
#40
0)
#45
b1 X
b1 Q
b1 u
04
b1 Y
b1 q
b1 Z
b1 g
b1 R
b1 t
b1 P
b1 w
b1 V
b1 U
b100000000000 W
b10 C
b10 J
b10 e
1G
1D
b100001000000010010011 !
b100001000000010010011 /
b100001000000010010011 1
b100001000000010010011 O
b10 I
1)
#50
0)
#55
14
b0 Y
b0 q
b0 Z
b0 g
b1 %
b1 5
b1 [
b1 v
b1 +
b0 C
b0 J
b0 e
1G
0D
b1 $
b1 3
b1 L
b1 c
b100 I
1)
#60
0)
#65
04
b1 Y
b1 q
b1 Z
b1 g
1H
0G
b0 %
b0 5
b0 [
b0 v
b0 +
b1 K
b1 f
b1 T
b1 r
b1 "
b1 ,
b1 2
b1 N
b1 S
b1 s
b0 I
b0 $
b0 3
b0 L
b0 c
1)
#70
0)
#75
b10000 .
0H
b10000000000000000010000 &
b10000000000000000010000 6
b10000000000000000010000 \
b10000000000000000010000 d
b1 I
1)
#80
0)
#85
bx Z
bx g
bx Y
bx q
bx "
bx ,
bx 2
bx N
bx S
bx s
bx Q
bx u
bx X
bx K
bx f
bx T
bx r
bx R
bx t
bx P
bx w
bx V
bx U
bx0 W
bx !
bx /
bx 1
bx O
b10 I
1)
#90
0)
#95
b100 I
1)
#100
0)
#105
1H
b0 I
1)
#110
0)
#115
b10100 .
0H
b10000000000000000010100 &
b10000000000000000010100 6
b10000000000000000010100 \
b10000000000000000010100 d
b1 I
1)
#120
0)
#125
b10 I
1)
#130
0)
#135
b100 I
1)
#140
0)
#145
1H
b0 I
1)
#150
0)
#155
b11000 .
0H
b10000000000000000011000 &
b10000000000000000011000 6
b10000000000000000011000 \
b10000000000000000011000 d
b1 I
1)
#160
0)
#165
b10 I
1)
#170
0)
#175
b100 I
1)
#180
0)
#185
1H
b0 I
1)
#190
0)
#195
b11100 .
0H
b10000000000000000011100 &
b10000000000000000011100 6
b10000000000000000011100 \
b10000000000000000011100 d
b1 I
1)
#200
0)
#205
b10 I
1)
#210
0)
#215
b100 I
1)
#220
0)
#225
1H
b0 I
1)
#230
0)
#235
b100000 .
0H
b10000000000000000100000 &
b10000000000000000100000 6
b10000000000000000100000 \
b10000000000000000100000 d
b1 I
1)
#240
0)
#245
b10 I
1)
#250
0)
#255
b100 I
1)
#260
0)
#265
1H
b0 I
1)
#270
0)
#275
b100100 .
0H
b10000000000000000100100 &
b10000000000000000100100 6
b10000000000000000100100 \
b10000000000000000100100 d
b1 I
1)
#280
0)
#285
b10 I
1)
#290
0)
#295
b100 I
1)
#300
0)
#305
1H
b0 I
1)
#310
0)
#315
b101000 .
0H
b10000000000000000101000 &
b10000000000000000101000 6
b10000000000000000101000 \
b10000000000000000101000 d
b1 I
1)
#320
0)
#325
b10 I
1)
#330
0)
#335
b100 I
1)
#340
0)
#345
1H
b0 I
1)
#350
0)
#355
b101100 .
0H
b10000000000000000101100 &
b10000000000000000101100 6
b10000000000000000101100 \
b10000000000000000101100 d
b1 I
1)
#360
0)
#365
b10 I
1)
#370
0)
#375
b100 I
1)
#380
0)
#385
1H
b0 I
1)
#390
0)
#395
b110000 .
0H
b10000000000000000110000 &
b10000000000000000110000 6
b10000000000000000110000 \
b10000000000000000110000 d
b1 I
1)
#400
0)
#405
b10 I
1)
#410
0)
#415
b100 I
1)
#420
0)
#425
1H
b0 I
1)
#430
0)
#435
b110100 .
0H
b10000000000000000110100 &
b10000000000000000110100 6
b10000000000000000110100 \
b10000000000000000110100 d
b1 I
1)
#440
0)
#445
b10 I
1)
#450
0)
#455
b100 I
1)
#460
0)
#465
1H
b0 I
1)
#470
0)
#475
b111000 .
0H
b10000000000000000111000 &
b10000000000000000111000 6
b10000000000000000111000 \
b10000000000000000111000 d
b1 I
1)
#480
0)
#485
b10 I
1)
#490
0)
#495
b100 I
1)
#500
0)
#505
1H
b0 I
1)
#510
0)
#515
b111100 .
0H
b10000000000000000111100 &
b10000000000000000111100 6
b10000000000000000111100 \
b10000000000000000111100 d
b1 I
1)
#520
0)
#525
b10 I
1)
#530
0)
#535
b100 I
1)
#540
0)
#545
1H
b0 I
1)
#550
0)
#555
b1000000 .
0H
b10000000000000001000000 &
b10000000000000001000000 6
b10000000000000001000000 \
b10000000000000001000000 d
b1 I
1)
#560
0)
#565
b10 I
1)
#570
0)
#575
b100 I
1)
#580
0)
#585
1H
b0 I
1)
#590
0)
#595
b1000100 .
0H
b10000000000000001000100 &
b10000000000000001000100 6
b10000000000000001000100 \
b10000000000000001000100 d
b1 I
1)
#600
0)
#605
b10 I
1)
#610
0)
#615
b100 I
1)
#620
0)
#625
1H
b0 I
1)
#630
0)
#635
b1001000 .
0H
b10000000000000001001000 &
b10000000000000001001000 6
b10000000000000001001000 \
b10000000000000001001000 d
b1 I
1)
#640
0)
#645
b10 I
1)
#650
0)
#655
b100 I
1)
#660
0)
#665
1H
b0 I
1)
#670
0)
#675
b1001100 .
0H
b10000000000000001001100 &
b10000000000000001001100 6
b10000000000000001001100 \
b10000000000000001001100 d
b1 I
1)
#680
0)
#685
b10 I
1)
#690
0)
#695
b100 I
1)
#700
0)
#705
1H
b0 I
1)
#710
0)
#715
b1010000 .
0H
b10000000000000001010000 &
b10000000000000001010000 6
b10000000000000001010000 \
b10000000000000001010000 d
b1 I
1)
#720
0)
#725
b10 I
1)
#730
0)
#735
b100 I
1)
#740
0)
#745
1H
b0 I
1)
#750
0)
#755
b1010100 .
0H
b10000000000000001010100 &
b10000000000000001010100 6
b10000000000000001010100 \
b10000000000000001010100 d
b1 I
1)
#760
0)
#765
b10 I
1)
#770
0)
#775
b100 I
1)
#780
0)
#785
1H
b0 I
1)
#790
0)
#795
b1011000 .
0H
b10000000000000001011000 &
b10000000000000001011000 6
b10000000000000001011000 \
b10000000000000001011000 d
b1 I
1)
#800
0)
#805
b10 I
1)
#810
0)
#815
b100 I
1)
#820
0)
#825
1H
b0 I
1)
#830
0)
#835
b1011100 .
0H
b10000000000000001011100 &
b10000000000000001011100 6
b10000000000000001011100 \
b10000000000000001011100 d
b1 I
1)
#840
0)
#845
b10 I
1)
#850
0)
#855
b100 I
1)
#860
0)
#865
1H
b0 I
1)
#870
0)
#875
b1100000 .
0H
b10000000000000001100000 &
b10000000000000001100000 6
b10000000000000001100000 \
b10000000000000001100000 d
b1 I
1)
#880
0)
#885
b10 I
1)
#890
0)
#895
b100 I
1)
#900
0)
#905
1H
b0 I
1)
#910
0)
#915
b1100100 .
0H
b10000000000000001100100 &
b10000000000000001100100 6
b10000000000000001100100 \
b10000000000000001100100 d
b1 I
1)
#920
0)
#925
b10 I
1)
#930
0)
#935
b100 I
1)
#940
0)
#945
1H
b0 I
1)
#950
0)
#955
b1101000 .
0H
b10000000000000001101000 &
b10000000000000001101000 6
b10000000000000001101000 \
b10000000000000001101000 d
b1 I
1)
#960
0)
#965
b10 I
1)
#970
0)
#975
b100 I
1)
#980
0)
#985
1H
b0 I
1)
#990
0)
#995
b1101100 .
0H
b10000000000000001101100 &
b10000000000000001101100 6
b10000000000000001101100 \
b10000000000000001101100 d
b1 I
1)
