dump.vcd
$date
	Sun Dec 22 04:14:03 2024
$end
$version
	Icarus Verilog
$end
$timescale
	1ps
$end
$scope module top_proc_tb $end
$var wire 32 ! instr [31:0] $end
$var wire 32 " dWriteData [31:0] $end
$var wire 32 # dReadData [31:0] $end
$var wire 32 $ dAddress [31:0] $end
$var wire 32 % WriteBackData [31:0] $end
$var wire 32 & PC [31:0] $end
$var wire 1 ' MemWrite $end
$var wire 1 ( MemRead $end
$var reg 1 ) clk $end
$var reg 1 * rst $end
$scope module ram_inst $end
$var wire 9 + addr [8:0] $end
$var wire 1 ) clk $end
$var wire 1 ' we $end
$var wire 32 , din [31:0] $end
$var reg 32 - dout [31:0] $end
$upscope $end
$scope module rom_inst $end
$var wire 9 . addr [8:0] $end
$var wire 1 ) clk $end
$var reg 32 / dout [31:0] $end
$upscope $end
$scope module uut $end
$var wire 1 ) clk $end
$var wire 32 0 dReadData [31:0] $end
$var wire 32 1 instr [31:0] $end
$var wire 1 * rst $end
$var wire 32 2 dWriteData [31:0] $end
$var wire 32 3 dAddress [31:0] $end
$var wire 1 4 Zero $end
$var wire 32 5 WriteBackData [31:0] $end
$var wire 32 6 PC [31:0] $end
$var parameter 7 7 BTYPE $end
$var parameter 3 8 DECODE $end
$var parameter 3 9 EXECUTE $end
$var parameter 3 : FETCH $end
$var parameter 32 ; INITIAL_PC $end
$var parameter 7 < ITYPE $end
$var parameter 7 = LOAD $end
$var parameter 3 > MEMORY $end
$var parameter 3 ? NONE $end
$var parameter 7 @ RTYPE $end
$var parameter 7 A STYPE $end
$var parameter 3 B WRITE_BACK $end
$var reg 4 C ALUCtrl [3:0] $end
$var reg 1 D ALUSrc $end
$var reg 1 ( MemRead $end
$var reg 1 E MemToReg $end
$var reg 1 ' MemWrite $end
$var reg 1 F PCSrc $end
$var reg 1 G RegWrite $end
$var reg 1 H loadPC $end
$var reg 3 I state [2:0] $end
$scope module dp $end
$var wire 4 J ALUCtrl [3:0] $end
$var wire 1 D ALUSrc $end
$var wire 1 E MemToReg $end
$var wire 1 F PCSrc $end
$var wire 1 G RegWrite $end
$var wire 32 K alu_op1 [31:0] $end
$var wire 1 ) clk $end
$var wire 32 L dAddress [31:0] $end
$var wire 32 M dReadData [31:0] $end
$var wire 32 N dWriteData [31:0] $end
$var wire 32 O instr [31:0] $end
$var wire 1 H loadPC $end
$var wire 1 * rst $end
$var wire 5 P writeReg [4:0] $end
$var wire 5 Q readReg2 [4:0] $end
$var wire 5 R readReg1 [4:0] $end
$var wire 32 S readData2 [31:0] $end
$var wire 32 T readData1 [31:0] $end
$var wire 32 U imm_S [31:0] $end
$var wire 32 V imm_I_L [31:0] $end
$var wire 32 W imm_B [31:0] $end
$var wire 32 X imm [31:0] $end
$var wire 32 Y alu_result [31:0] $end
$var wire 32 Z alu_op2 [31:0] $end
$var wire 1 4 Zero $end
$var wire 32 [ WriteBackData [31:0] $end
$var wire 32 \ PC [31:0] $end
$var parameter 7 ] BTYPE $end
$var parameter 32 ^ INITIAL_PC $end
$var parameter 7 _ ITYPE $end
$var parameter 7 ` LOAD $end
$var parameter 7 a RTYPE $end
$var parameter 7 b STYPE $end
$var reg 32 c alu_result_latched [31:0] $end
$var reg 32 d currentPC [31:0] $end
$scope module alu_unit $end
$var wire 4 e alu_op [3:0] $end
$var wire 32 f op1 [31:0] $end
$var wire 32 g op2 [31:0] $end
$var parameter 4 h ALUOP_ADD $end
$var parameter 4 i ALUOP_AND $end
$var parameter 4 j ALUOP_LESS $end
$var parameter 4 k ALUOP_LSHIFT $end
$var parameter 4 l ALUOP_NRSHIFT $end
$var parameter 4 m ALUOP_OR $end
$var parameter 4 n ALUOP_RSHIFT $end
$var parameter 4 o ALUOP_SUB $end
$var parameter 4 p ALUOP_XOR $end
$var reg 32 q result [31:0] $end
$var reg 1 4 zero $end
$upscope $end
$scope module register_file $end
$var wire 1 ) clk $end
$var wire 32 r readData1 [31:0] $end
$var wire 32 s readData2 [31:0] $end
$var wire 5 t readReg1 [4:0] $end
$var wire 5 u readReg2 [4:0] $end
$var wire 1 G write $end
$var wire 32 v writeData [31:0] $end
$var wire 5 w writeReg [4:0] $end
$var parameter 32 x DATAWIDTH $end
$var integer 32 y i [31:0] $end
$upscope $end
$upscope $end
$upscope $end
$upscope $end
$enddefinitions $end
$comment Show the parameter values. $end
$dumpall
b100000 x
b101 p
b110 o
b1000 n
b1 m
b1010 l
b1001 k
b100 j
b0 i
b10 h
b100011 b
b110011 a
b11 `
b10011 _
b10000000000000000000000 ^
b1100011 ]
b100 B
b100011 A
b110011 @
b111 ?
b11 >
b11 =
b10011 <
b10000000000000000000000 ;
b0 :
b10 9
b1 8
b1100011 7
$end
#0
$dumpvars
b100000 y
bx w
b0 v
bx u
bx t
bx s
bx r
bx q
bx g
bx f
b0 e
b10000000000000000000000 d
b0 c
b10000000000000000000000 \
b0 [
bx Z
bx Y
bx X
bx0 W
bx V
bx U
bx T
bx S
bx R
bx Q
bx P
bx O
bx N
bx M
b0 L
bx K
b0 J
b1 I
0H
0G
0F
0E
0D
b0 C
b10000000000000000000000 6
b0 5
04
b0 3
bx 2
bx 1
bx 0
bx /
b0 .
bx -
bx ,
b0 +
1*
0)
0(
0'
b10000000000000000000000 &
b0 %
b0 $
bx #
bx "
bx !
$end
#1000
b100000 y
#2000
0*
#5000
b111 Y
b111 q
b111 Z
b111 g
b111 X
b0 K
b0 f
b0 T
b0 r
b0 R
b0 t
b10 P
b10 w
b111 V
b10 U
b10 W
b10 C
b10 J
b10 e
1G
1D
b11100000000000100010011 !
b11100000000000100010011 /
b11100000000000100010011 1
b11100000000000100010011 O
b10 I
1)
#10000
0)
#15000
14
b0 Y
b0 q
bx Z
bx g
b111 %
b111 5
b111 [
b111 v
b111 +
b0 C
b0 J
b0 e
1G
0D
b111 $
b111 3
b111 L
b111 c
b100 I
1)
#20000
0)
#25000
1H
0G
b0 %
b0 5
b0 [
b0 v
b0 +
b0 I
b0 $
b0 3
b0 L
b0 c
1)
#30000
0)
#35000
b100 .
0H
b10000000000000000000100 &
b10000000000000000000100 6
b10000000000000000000100 \
b10000000000000000000100 d
b1 I
1)
#40000
0)
#45000
04
bx Y
bx q
bx X
bx K
bx f
bx T
bx r
bx R
bx t
bx P
bx w
bx V
bx U
bx0 W
bx !
bx /
bx 1
bx O
b10 I
1)
#50000
0)
#55000
b100 I
1)
#60000
0)
#65000
1H
b0 I
1)
#70000
0)
#75000
b1000 .
0H
b10000000000000000001000 &
b10000000000000000001000 6
b10000000000000000001000 \
b10000000000000000001000 d
b1 I
1)
#80000
0)
#85000
b10 I
1)
#90000
0)
#95000
b100 I
1)
#100000
0)
#105000
1H
b0 I
1)
#110000
0)
#115000
b1100 .
0H
b10000000000000000001100 &
b10000000000000000001100 6
b10000000000000000001100 \
b10000000000000000001100 d
b1 I
1)
#120000
0)
#125000
b10 I
1)
#130000
0)
#135000
b100 I
1)
#140000
0)
#145000
1H
b0 I
1)
#150000
0)
#155000
b10000 .
0H
b10000000000000000010000 &
b10000000000000000010000 6
b10000000000000000010000 \
b10000000000000000010000 d
b1 I
1)
#160000
0)
#165000
b10 I
1)
#170000
0)
#175000
b100 I
1)
#180000
0)
#185000
1H
b0 I
1)
#190000
0)
#195000
b10100 .
0H
b10000000000000000010100 &
b10000000000000000010100 6
b10000000000000000010100 \
b10000000000000000010100 d
b1 I
1)
#200000
0)
#205000
b10 I
1)
#210000
0)
#215000
b100 I
1)
#220000
0)
#225000
1H
b0 I
1)
#230000
0)
#235000
b11000 .
0H
b10000000000000000011000 &
b10000000000000000011000 6
b10000000000000000011000 \
b10000000000000000011000 d
b1 I
1)
#240000
0)
#245000
b10 I
1)
#250000
0)
#255000
b100 I
1)
#260000
0)
#265000
1H
b0 I
1)
#270000
0)
#275000
b11100 .
0H
b10000000000000000011100 &
b10000000000000000011100 6
b10000000000000000011100 \
b10000000000000000011100 d
b1 I
1)
#280000
0)
#285000
b10 I
1)
#290000
0)
#295000
b100 I
1)
#300000
0)
#305000
1H
b0 I
1)
#310000
0)
#315000
b100000 .
0H
b10000000000000000100000 &
b10000000000000000100000 6
b10000000000000000100000 \
b10000000000000000100000 d
b1 I
1)
#320000
0)
#325000
b10 I
1)
#330000
0)
#335000
b100 I
1)
#340000
0)
#345000
1H
b0 I
1)
#350000
0)
#355000
b100100 .
0H
b10000000000000000100100 &
b10000000000000000100100 6
b10000000000000000100100 \
b10000000000000000100100 d
b1 I
1)
#360000
0)
#365000
b10 I
1)
#370000
0)
#375000
b100 I
1)
#380000
0)
#385000
1H
b0 I
1)
#390000
0)
#395000
b101000 .
0H
b10000000000000000101000 &
b10000000000000000101000 6
b10000000000000000101000 \
b10000000000000000101000 d
b1 I
1)
#400000
0)
#405000
b10 I
1)
#410000
0)
#415000
b100 I
1)
#420000
0)
#425000
1H
b0 I
1)
#430000
0)
#435000
b101100 .
0H
b10000000000000000101100 &
b10000000000000000101100 6
b10000000000000000101100 \
b10000000000000000101100 d
b1 I
1)
#440000
0)
#445000
b10 I
1)
#450000
0)
#455000
b100 I
1)
#460000
0)
#465000
1H
b0 I
1)
#470000
0)
#475000
b110000 .
0H
b10000000000000000110000 &
b10000000000000000110000 6
b10000000000000000110000 \
b10000000000000000110000 d
b1 I
1)
#480000
0)
#485000
b10 I
1)
#490000
0)
#495000
b100 I
1)
#500000
0)
#505000
1H
b0 I
1)
#510000
0)
#515000
b110100 .
0H
b10000000000000000110100 &
b10000000000000000110100 6
b10000000000000000110100 \
b10000000000000000110100 d
b1 I
1)
#520000
0)
#525000
b10 I
1)
#530000
0)
#535000
b100 I
1)
#540000
0)
#545000
1H
b0 I
1)
#550000
0)
#555000
b111000 .
0H
b10000000000000000111000 &
b10000000000000000111000 6
b10000000000000000111000 \
b10000000000000000111000 d
b1 I
1)
#560000
0)
#565000
b10 I
1)
#570000
0)
#575000
b100 I
1)
#580000
0)
#585000
1H
b0 I
1)
#590000
0)
#595000
b111100 .
0H
b10000000000000000111100 &
b10000000000000000111100 6
b10000000000000000111100 \
b10000000000000000111100 d
b1 I
1)
#600000
0)
#605000
b10 I
1)
#610000
0)
#615000
b100 I
1)
#620000
0)
#625000
1H
b0 I
1)
#630000
0)
#635000
b1000000 .
0H
b10000000000000001000000 &
b10000000000000001000000 6
b10000000000000001000000 \
b10000000000000001000000 d
b1 I
1)
#640000
0)
#645000
b10 I
1)
#650000
0)
#655000
b100 I
1)
#660000
0)
#665000
1H
b0 I
1)
#670000
0)
#675000
b1000100 .
0H
b10000000000000001000100 &
b10000000000000001000100 6
b10000000000000001000100 \
b10000000000000001000100 d
b1 I
1)
#680000
0)
#685000
b10 I
1)
#690000
0)
#695000
b100 I
1)
#700000
0)
#705000
1H
b0 I
1)
#710000
0)
#715000
b1001000 .
0H
b10000000000000001001000 &
b10000000000000001001000 6
b10000000000000001001000 \
b10000000000000001001000 d
b1 I
1)
#720000
0)
#725000
b10 I
1)
#730000
0)
#735000
b100 I
1)
#740000
0)
#745000
1H
b0 I
1)
#750000
0)
#755000
b1001100 .
0H
b10000000000000001001100 &
b10000000000000001001100 6
b10000000000000001001100 \
b10000000000000001001100 d
b1 I
1)
#760000
0)
#765000
b10 I
1)
#770000
0)
#775000
b100 I
1)
#780000
0)
#785000
1H
b0 I
1)
#790000
0)
#795000
b1010000 .
0H
b10000000000000001010000 &
b10000000000000001010000 6
b10000000000000001010000 \
b10000000000000001010000 d
b1 I
1)
#800000
0)
#805000
b10 I
1)
#810000
0)
#815000
b100 I
1)
#820000
0)
#825000
1H
b0 I
1)
#830000
0)
#835000
b1010100 .
0H
b10000000000000001010100 &
b10000000000000001010100 6
b10000000000000001010100 \
b10000000000000001010100 d
b1 I
1)
#840000
0)
#845000
b10 I
1)
#850000
0)
#855000
b100 I
1)
#860000
0)
#865000
1H
b0 I
1)
#870000
0)
#875000
b1011000 .
0H
b10000000000000001011000 &
b10000000000000001011000 6
b10000000000000001011000 \
b10000000000000001011000 d
b1 I
1)
#880000
0)
#885000
b10 I
1)
#890000
0)
#895000
b100 I
1)
#900000
0)
#905000
1H
b0 I
1)
#910000
0)
#915000
b1011100 .
0H
b10000000000000001011100 &
b10000000000000001011100 6
b10000000000000001011100 \
b10000000000000001011100 d
b1 I
1)
#920000
0)
#925000
b10 I
1)
#930000
0)
#935000
b100 I
1)
#940000
0)
#945000
1H
b0 I
1)
#950000
0)
#955000
b1100000 .
0H
b10000000000000001100000 &
b10000000000000001100000 6
b10000000000000001100000 \
b10000000000000001100000 d
b1 I
1)
#960000
0)
#965000
b10 I
1)
#970000
0)
#975000
b100 I
1)
#980000
0)
#985000
1H
b0 I
1)
#990000
0)
#995000
b1100100 .
0H
b10000000000000001100100 &
b10000000000000001100100 6
b10000000000000001100100 \
b10000000000000001100100 d
b1 I
1)
